10:54:25 25.76
10:54:41 18.08
10:54:57 14.22
10:55:13 16.19
11:15:20 12.99
11:15:36 27.84
11:15:52 17.08
11:16:8 20.77
11:18:1 24.53
11:18:17 24.5
11:18:33 3.06
11:18:49 23.46
11:19:5 17.84
11:19:21 14.91
11:19:37 6.75
11:19:53 22.92
11:20:9 23.2
11:20:25 26.08
11:20:41 10.38
11:20:57 10.15
11:21:13 19.67
11:21:29 15.54
11:21:45 6.17
11:22:1 5.96
11:22:17 21.73
11:22:33 22.83
11:22:49 13.5
11:23:5 16.8
11:23:21 3.31
11:23:37 15.72
11:23:53 20.87
11:24:9 5.75
11:24:25 11.31
11:24:41 19.7
11:24:57 4.77
11:25:13 4.31
11:25:29 3.68
11:25:45 5.75
11:26:1 10.57
11:26:18 19.84
11:26:33 26.86
11:27:6 10.46
11:27:21 23.81
11:27:37 27.86
11:28:41 5.71
11:28:57 1.72
11:29:13 11.41
11:29:29 18.08
11:29:45 7.52
11:30:1 28.0
11:30:17 19.65
11:30:33 16.35
11:30:49 13.87
11:31:5 1.39
11:31:21 21.04
11:31:37 20.63
11:31:53 28.88
11:32:9 19.9
11:32:25 4.77
11:32:41 12.4
11:32:57 29.64
11:33:13 12.0
11:33:29 20.97
11:33:45 2.2
11:34:1 0.18
11:34:17 0.29
11:34:33 7.55
11:34:49 13.07
11:35:5 4.9
11:35:37 24.06
11:35:53 24.73
11:36:9 16.57
11:36:25 26.39
11:36:41 7.48
11:36:57 13.51
11:37:13 23.73
11:37:45 25.03
11:38:1 12.94
11:38:17 12.63
11:38:33 10.96
11:38:49 18.99
11:39:5 0.22
11:39:21 18.68
11:39:37 10.39
11:39:53 18.5
11:40:9 13.3
11:40:25 22.3
11:40:41 13.19
11:40:57 23.3
11:41:13 3.78
11:41:29 4.42
11:41:45 16.35
11:42:1 24.58
11:42:17 10.55
11:42:17 10.55
11:42:33 26.3
11:42:49 27.11
11:43:5 27.68
11:43:21 9.11
11:43:21 9.11
11:43:37 18.98
11:43:37 18.98
11:43:53 25.92
11:44:9 1.94
11:44:9 1.94
11:44:25 21.72
11:44:25 21.72
11:44:41 17.13
11:44:41 17.13
11:44:57 17.46
11:44:57 17.46
11:45:13 12.35
11:45:13 12.35
11:45:29 23.23
11:45:29 23.23
11:45:45 12.43
11:45:45 12.43
11:46:1 5.02
11:46:17 8.39
11:46:17 8.39
11:46:33 17.65
11:46:49 11.46
11:47:5 23.07
11:47:21 4.74
11:47:37 0.54
11:47:53 13.06
11:48:9 3.13
11:48:9 3.13
11:48:25 8.98
11:48:41 2.0
11:48:41 2.0
11:48:57 10.17
11:49:13 27.78
11:49:29 11.37
11:49:29 11.37
11:49:45 15.58
11:49:45 15.58
11:50:1 1.15
11:50:1 1.15
11:50:17 28.02
11:50:17 28.02
11:50:33 21.52
11:50:33 21.52
11:50:49 7.75
11:50:49 7.75
11:51:5 25.7
11:51:5 25.7
11:51:21 18.8
11:51:37 17.14
11:51:37 17.14
11:51:53 23.28
11:51:53 23.28
11:52:9 0.09
11:52:9 0.09
11:52:25 17.82
11:52:25 17.82
11:52:41 29.71
11:52:41 29.71
11:52:57 11.22
11:52:57 11.22
11:53:13 27.08
11:53:13 27.08
11:53:29 22.6
11:53:29 22.6
11:53:45 22.18
11:53:45 22.18
11:54:1 16.74
11:54:1 16.74
11:54:18 25.14
11:54:33 0.71
11:54:50 23.68
11:55:21 12.34
11:55:38 28.34
11:55:53 26.17
11:56:9 12.48
11:56:26 9.59
11:56:42 22.02
11:56:58 18.11
11:57:14 9.94
11:57:30 28.48
11:57:46 8.68
11:58:2 20.15
11:58:18 13.21
11:58:34 8.5
11:58:50 18.87
11:59:6 17.74
11:59:22 25.68
11:59:38 18.9
11:59:54 8.26
12:0:10 15.85
12:0:26 8.11
12:0:42 19.87
12:0:58 2.36
12:1:14 20.52
12:1:30 20.66
12:1:46 8.38
12:2:2 29.51
12:2:18 22.55
12:2:34 10.56
12:2:50 23.36
12:3:6 7.12
12:3:22 28.12
12:3:38 10.63
12:3:54 25.51
12:4:10 16.1
12:4:26 1.37
12:4:42 13.43
12:4:58 26.48
12:5:14 18.55
12:5:30 4.05
12:5:46 16.25
12:6:2 2.64
12:6:18 23.77
12:6:34 7.1
12:6:50 11.82
12:7:6 28.29
12:7:22 27.37
12:7:38 19.23
12:7:54 29.66
12:8:10 13.35
12:8:26 8.77
12:8:42 7.54
12:8:58 3.36
12:9:14 20.61
12:9:30 1.81
12:9:46 15.05
12:10:2 18.41
12:10:18 7.39
12:10:34 13.73
12:10:50 10.31
12:11:6 25.94
12:11:22 26.73
12:11:38 17.25
12:11:54 23.94
12:12:10 27.04
12:12:26 3.12
12:12:42 1.03
12:12:58 17.2
12:13:14 22.99
12:13:30 27.59
12:13:46 3.31
12:14:2 7.5
12:14:18 16.07
12:14:34 17.47
12:14:50 23.73
12:15:6 15.97
12:15:22 16.24
12:15:38 15.48
12:15:54 8.55
12:16:10 1.99
12:16:26 8.49
12:16:42 3.41
12:16:58 13.92
12:17:14 9.7
12:17:30 15.98
12:17:46 25.26
12:18:2 22.57
12:18:18 1.49
12:18:34 3.84
12:18:50 4.87
12:19:6 28.62
12:19:22 23.58
12:19:38 28.82
12:19:54 23.06
12:20:10 15.67
12:20:26 28.43
12:20:42 19.63
12:20:58 19.22
12:21:14 23.17
12:21:30 29.29
12:21:46 12.99
12:22:2 12.46
12:22:18 15.97
12:22:34 1.66
12:22:50 20.46
12:23:6 17.18
12:23:22 22.14
12:23:38 26.77
12:23:54 21.04
12:24:10 28.2
12:24:26 14.05
12:24:42 2.06
12:24:58 4.44
12:25:14 0.33
12:25:30 27.67
12:25:46 13.6
12:26:2 20.15
12:26:18 17.42
12:26:34 25.11
12:26:50 5.59
12:27:6 7.25
12:27:22 6.0
12:27:38 25.41
12:27:54 21.77
12:28:10 19.89
12:28:26 28.28
12:28:42 8.59
12:28:58 13.88
12:29:14 23.65
12:29:30 29.77
12:29:46 27.88
12:30:2 12.05
12:30:18 27.47
12:30:34 16.25
12:30:50 5.3
12:31:6 12.29
12:31:22 26.49
12:31:38 15.39
12:31:54 5.36
12:32:10 15.81
12:32:26 10.5
12:32:42 17.74
12:32:58 12.1
12:33:14 25.5
12:33:30 23.23
12:33:46 2.26
12:34:2 4.3
12:34:18 14.31
12:34:34 17.28
12:34:50 1.34
12:35:6 13.98
12:35:22 0.6
12:35:38 29.93
12:35:54 10.33
12:36:10 3.16
12:36:26 5.57
12:36:42 4.54
12:36:58 26.52
12:37:14 23.76
12:37:30 27.62
12:37:46 22.8
12:38:2 22.63
12:38:18 15.87
12:38:34 18.69
12:38:50 2.69
12:39:6 19.81
12:39:22 9.17
12:39:38 27.66
12:39:54 17.17
12:40:10 5.13
12:40:26 22.64
12:40:42 15.65
12:40:58 18.63
12:41:14 8.52
12:41:30 7.52
12:41:46 18.42
12:42:2 4.06
12:42:18 24.27
12:42:34 28.43
12:42:50 10.65
12:43:6 5.99
12:43:22 1.94
12:43:38 7.86
12:43:55 27.31
12:44:11 14.14
12:44:27 11.86
12:44:43 8.77
12:44:59 16.95
12:45:15 22.86
12:45:31 0.03
12:45:47 20.56
12:46:3 12.02
12:46:19 9.26
12:46:35 17.56
12:46:51 13.18
12:47:7 1.17
12:47:23 7.12
12:47:39 9.62
12:47:55 4.52
12:48:11 28.57
12:48:27 21.49
12:48:43 18.82
12:48:59 6.05
12:49:15 25.15
12:49:31 9.14
12:49:47 8.14
12:50:3 11.73
12:50:19 16.93
12:50:35 29.6
12:50:51 8.33
12:51:7 15.05
12:51:23 5.24
12:51:39 12.09
12:51:55 4.78
12:52:11 9.48
12:52:27 14.05
12:52:43 23.09
12:52:59 28.96
12:53:15 16.99
12:53:31 19.15
12:53:47 29.69
12:54:3 19.23
12:54:19 9.95
12:54:35 14.46
12:54:51 13.69
12:55:7 6.24
12:55:23 11.21
12:55:39 20.26
12:55:55 1.45
12:56:11 7.83
12:56:27 27.4
12:56:43 18.37
12:56:59 24.41
12:57:15 8.3
12:57:31 10.51
12:57:47 9.46
12:58:3 25.46
12:58:19 7.34
12:58:35 12.72
12:58:51 27.19
12:59:7 25.98
12:59:23 3.3
12:59:39 9.46
12:59:55 4.48
13:0:11 28.65
13:0:27 16.09
13:0:43 5.68
13:0:59 16.66
13:1:15 0.97
13:1:31 14.41
13:1:47 20.4
13:2:3 16.69
13:2:19 14.57
13:2:35 2.68
13:2:51 24.48
13:3:7 7.37
13:3:23 15.21
13:3:39 12.24
13:3:55 26.7
13:4:11 5.47
13:4:27 18.59
13:4:43 12.23
13:4:59 22.94
13:5:15 22.92
13:5:31 26.83
13:5:47 24.81
13:6:3 3.76
13:6:19 19.98
13:6:35 10.74
13:6:51 10.01
13:7:7 5.1
13:7:23 25.39
13:7:39 2.8
13:7:55 14.98
13:8:11 7.33
13:8:27 18.53
13:8:43 15.93
13:8:59 2.72
13:9:15 27.4
13:9:31 8.52
13:9:47 12.94
13:10:3 5.41
13:10:19 29.42
13:10:35 25.39
13:10:51 1.74
13:11:7 17.12
13:11:23 28.29
13:11:39 8.2
13:11:55 1.38
13:12:11 1.04
13:12:27 11.71
13:12:43 25.13
13:12:59 13.66
13:13:15 26.26
13:13:31 25.38
13:13:47 0.6
13:14:3 15.64
13:14:19 8.98
13:14:35 16.41
13:14:51 14.41
13:15:7 17.84
13:15:23 3.21
13:15:39 20.06
13:15:55 17.74
13:16:11 23.12
13:16:27 6.02
13:16:43 14.63
13:16:59 1.34
13:17:15 21.41
13:17:31 12.21
13:17:47 29.67
13:18:3 0.54
13:18:19 5.1
13:18:35 3.55
13:18:51 12.34
13:19:7 12.32
13:19:23 20.2
13:19:39 7.41
13:19:55 7.12
13:20:11 19.42
13:20:27 28.26
13:20:43 0.01
13:20:59 3.68
13:21:16 16.32
13:21:31 14.0
13:21:47 29.04
13:22:3 8.02
13:22:19 22.35
13:22:35 23.71
13:22:51 0.86
13:23:7 21.89
13:23:23 6.72
13:23:39 29.35
13:23:55 17.14
13:24:11 5.36
13:24:27 10.48
13:24:43 23.48
13:24:59 16.02
13:25:15 17.72
13:25:31 0.66
13:25:47 29.79
13:26:3 22.75
13:26:19 11.58
13:26:35 11.16
13:26:51 14.55
13:27:7 4.82
13:27:23 15.25
13:27:40 15.86
13:27:55 13.63
13:28:12 6.6
13:28:28 28.28
13:28:44 28.53
13:29:0 10.37
13:29:16 8.45
13:29:32 5.34
13:29:48 24.91
13:30:4 29.18
13:30:20 5.33
13:30:36 3.3
13:30:52 1.62
13:31:8 9.84
13:31:24 19.91
13:31:40 26.5
13:31:56 7.16
13:32:12 17.58
13:32:28 5.17
13:32:44 5.39
13:33:0 9.89
13:33:16 23.87
13:33:32 11.48
13:33:48 13.27
13:34:4 7.98
13:34:20 22.99
13:34:36 3.17
13:34:52 16.37
13:35:8 6.35
13:35:24 19.34
13:35:40 29.64
13:35:56 12.12
13:36:12 25.63
13:36:28 20.43
13:36:44 15.87
13:37:0 0.7
13:37:16 8.09
13:37:32 20.68
13:37:48 27.54
13:38:4 14.82
13:38:20 25.56
13:38:36 20.96
13:38:52 5.53
13:39:8 12.69
13:39:24 24.38
13:39:40 8.83
13:39:56 4.97
13:40:12 9.36
13:40:28 22.27
13:40:44 4.52
13:41:0 23.8
13:41:16 11.11
13:41:32 22.27
13:41:48 7.75
13:42:4 5.77
13:42:20 8.31
13:42:36 18.6
13:42:52 10.14
13:43:8 2.96
13:43:24 11.31
13:43:40 19.6
13:43:56 28.49
13:44:12 2.79
13:44:28 24.73
13:44:44 12.56
13:45:0 23.73
13:45:16 4.56
13:45:32 4.89
13:45:48 5.64
13:46:4 20.65
13:46:20 0.39
13:46:36 25.54
13:46:52 11.7
13:47:8 23.35
13:47:24 25.72
13:47:40 6.81
13:47:56 19.15
13:48:12 11.42
13:48:28 24.31
13:48:44 12.42
13:49:0 24.86
13:49:16 1.93
13:49:32 22.71
13:49:48 20.08
13:50:4 23.94
13:50:20 12.07
13:50:36 29.2
13:50:52 20.2
13:51:8 1.58
13:51:24 27.59
13:51:40 2.26
13:51:56 7.81
13:52:12 1.93
13:52:28 21.99
13:52:44 23.51
13:53:0 2.73
13:53:16 18.86
13:53:32 11.38
13:53:48 0.18
13:54:4 22.94
13:54:20 23.8
13:54:36 10.19
13:54:52 21.98
13:55:8 26.3
13:55:24 25.52
13:55:40 22.53
13:55:56 7.61
13:56:12 15.34
13:56:28 26.97
13:56:44 24.34
13:57:0 5.59
13:57:16 20.5
13:57:32 14.02
13:57:48 11.24
13:58:4 24.72
13:58:20 6.43
13:58:36 21.26
13:58:52 7.21
13:59:8 8.97
13:59:24 16.64
13:59:40 19.78
13:59:56 18.91
14:0:12 1.87
14:0:28 1.34
14:0:44 1.91
14:1:0 10.78
14:1:16 5.4
14:1:32 3.59
14:1:48 8.0
14:2:4 5.93
14:2:20 28.36
14:2:36 28.56
14:2:52 20.17
14:3:8 27.69
14:3:24 9.24
14:3:40 1.21
14:3:56 8.03
14:4:12 16.95
14:4:28 18.59
14:4:44 7.06
14:5:0 21.41
14:5:16 10.27
14:5:32 5.87
14:5:48 21.25
14:6:4 15.12
14:6:20 23.63
14:6:36 5.8
14:6:52 10.91
14:7:8 20.63
14:7:24 17.05
14:7:40 9.18
14:7:56 5.68
14:8:12 19.82
14:8:28 14.87
14:8:44 23.25
14:9:0 1.49
14:9:16 15.61
14:9:32 6.79
14:9:48 6.48
14:10:4 12.63
14:10:20 14.75
14:10:36 4.66
14:10:52 22.91
14:11:8 17.03
14:11:24 27.43
14:11:40 29.99
14:11:56 0.95
14:12:13 19.76
14:12:29 8.98
14:12:45 17.25
14:13:1 11.68
14:13:17 9.83
14:13:33 28.56
14:13:49 7.86
14:14:5 1.63
14:14:21 5.16
14:14:37 19.81
14:14:53 19.97
14:15:9 15.09
14:15:25 20.86
14:15:41 28.47
14:15:57 28.92
14:16:13 20.85
14:16:29 5.71
14:16:45 12.1
14:17:1 13.49
14:17:17 18.5
14:17:33 1.91
14:17:49 16.65
14:18:5 22.91
14:18:21 19.17
14:18:37 3.02
14:18:53 25.14
14:19:9 9.56
14:19:25 5.79
14:19:41 5.21
14:19:57 3.24
14:20:13 12.41
14:20:29 7.84
14:20:45 26.74
14:21:1 6.93
14:21:17 16.27
14:21:33 5.57
14:21:49 20.62
14:22:5 7.06
14:22:21 11.75
14:22:37 8.75
14:22:53 25.56
14:23:9 16.01
14:23:25 0.88
14:23:41 24.88
14:23:57 0.19
14:24:13 21.22
14:24:29 23.61
14:24:45 21.89
14:25:1 15.47
14:25:17 10.82
14:25:33 9.98
14:25:49 20.39
14:26:5 10.36
14:26:21 16.18
14:26:37 12.99
14:26:53 0.31
14:27:9 25.75
14:27:25 6.49
14:27:41 27.33
14:27:57 27.12
14:28:13 1.59
14:28:29 10.33
14:28:45 8.72
14:29:1 12.52
14:29:17 22.32
14:29:33 29.19
14:29:49 19.11
14:30:5 24.59
14:30:21 5.48
14:30:37 28.06
14:30:53 2.51
14:31:9 22.5
14:31:25 18.62
14:31:41 17.94
14:31:57 16.66
14:32:13 20.6
14:32:29 9.41
14:32:45 5.36
14:33:1 5.4
14:33:17 7.13
14:33:33 14.02
14:33:49 3.94
14:34:5 26.76
14:34:21 22.33
14:34:37 18.7
14:34:53 2.86
14:35:9 21.85
14:35:25 21.12
14:35:41 29.68
14:35:57 27.4
14:36:13 9.41
14:36:29 15.16
14:36:45 6.22
14:37:1 6.43
14:37:17 1.19
14:37:33 29.51
14:37:49 1.98
14:38:5 1.88
14:38:21 13.04
14:38:37 8.75
14:38:53 19.56
14:39:9 5.25
14:39:25 6.69
14:39:41 17.57
14:39:57 13.37
14:40:13 6.08
14:40:29 17.35
14:40:45 0.84
14:41:1 25.64
14:41:17 17.39
14:41:33 2.01
14:41:49 18.27
14:42:5 20.77
14:42:21 13.2
14:42:37 23.5
14:42:55 8.4
14:43:11 2.86
14:43:27 2.89
14:43:45 5.27
14:43:57 27.25
14:44:13 11.49
14:44:29 17.74
14:44:46 1.93
14:45:2 16.33
14:45:19 10.76
14:45:33 24.31
14:45:52 10.53
14:46:6 15.24
14:46:23 16.56
14:46:37 19.87
14:46:53 27.58
14:47:9 23.69
14:47:25 27.1
14:47:41 24.84
14:47:57 6.82
14:48:13 8.04
14:48:29 11.66
14:48:45 17.2
14:49:1 2.7
14:49:18 7.37
14:49:33 2.57
14:49:49 3.86
14:50:5 4.65
14:50:21 23.95
14:50:37 5.5
14:50:53 4.12
14:51:9 17.06
14:51:25 13.31
14:51:41 12.89
14:51:57 20.01
14:52:13 10.01
14:52:29 18.73
14:52:45 15.71
14:53:1 8.68
14:53:17 25.76
14:53:33 15.21
14:53:49 28.44
14:54:5 21.78
14:54:21 5.92
14:54:37 18.04
14:54:53 22.23
14:55:9 16.84
14:55:25 14.46
14:55:41 20.7
14:55:57 21.42
14:56:13 15.59
14:56:29 1.39
14:56:45 17.42
14:57:1 18.18
14:57:17 24.34
14:57:33 22.18
14:57:49 5.07
14:58:5 20.49
14:58:21 1.32
14:58:37 27.98
14:58:53 9.7
14:59:9 8.28
14:59:25 6.02
14:59:41 21.52
14:59:57 2.45
15:0:13 22.89
15:0:29 5.48
15:0:45 23.8
15:1:1 20.0
15:1:17 14.71
15:1:33 12.64
15:1:49 16.47
15:2:5 24.53
15:2:21 4.1
15:2:37 1.67
15:2:53 25.01
15:3:9 28.14
15:3:25 0.52
15:3:41 5.22
15:3:57 27.62
15:4:13 16.76
15:4:29 24.95
15:4:45 18.75
15:5:1 4.85
15:5:17 18.59
15:5:33 10.5
15:5:49 26.83
15:6:5 24.97
15:6:21 2.01
15:6:37 16.29
15:6:53 16.38
15:7:9 20.14
15:7:25 7.96
15:7:41 19.57
15:7:57 21.97
15:8:13 18.19
15:8:29 21.85
15:8:45 21.1
15:9:1 8.08
15:9:17 5.31
15:9:33 19.93
15:9:49 28.71
15:10:5 23.35
15:10:21 4.35
15:10:37 25.18
15:10:53 24.17
15:11:9 11.83
15:11:26 23.91
15:11:42 7.68
15:11:58 18.29
15:12:14 16.23
15:12:30 13.21
15:12:46 4.46
15:13:2 29.2
15:13:18 8.15
15:13:34 17.61
15:13:50 23.86
15:14:6 28.97
15:14:22 20.28
15:14:38 9.98
15:14:54 19.4
15:15:10 23.43
15:15:26 25.65
15:15:42 12.72
15:15:58 8.07
15:16:14 10.15
15:16:30 28.83
15:16:46 15.58
15:17:2 18.2
15:17:18 9.82
15:17:34 24.13
15:17:50 4.21
15:18:6 1.76
15:18:22 5.76
15:18:38 15.79
15:18:54 24.42
15:19:10 26.19
15:19:26 16.68
15:19:42 25.15
15:19:58 27.22
15:20:14 10.7
15:20:30 17.73
15:20:46 9.88
15:21:2 19.62
15:21:18 12.07
15:21:34 24.77
15:21:50 10.1
15:22:6 26.08
15:22:22 24.94
15:22:38 26.85
15:22:54 26.56
15:23:10 25.82
15:23:26 1.61
15:23:42 21.98
15:23:58 5.78
15:24:14 0.8
15:24:30 16.27
15:24:46 21.13
15:25:2 7.25
15:25:18 19.43
15:25:34 18.84
15:25:50 5.45
15:26:6 27.49
15:26:22 11.11
15:26:38 3.15
15:26:54 1.75
15:27:10 6.23
15:27:26 26.39
15:27:42 4.75
15:27:58 21.22
15:28:14 29.55
15:28:30 7.98
15:28:46 3.15
15:29:2 26.4
15:29:18 24.95
15:29:34 17.43
15:29:50 13.51
15:30:6 1.36
15:30:22 13.48
15:30:38 2.59
15:30:54 22.94
15:31:10 20.18
15:31:26 3.84
15:31:42 20.82
15:31:58 26.15
15:32:14 28.6
15:32:30 23.47
15:32:46 2.9
15:33:2 25.72
15:33:18 13.99
15:33:34 1.64
15:33:50 2.69
15:34:6 11.76
15:34:22 8.48
15:34:38 29.52
15:34:54 17.61
15:35:10 26.16
15:35:26 0.43
15:35:42 22.24
15:35:58 24.72
15:36:14 26.22
15:36:30 9.01
15:36:46 27.98
15:37:2 7.71
15:37:18 12.88
15:37:34 7.18
15:37:50 29.0
15:38:6 19.46
15:38:22 18.36
15:38:38 7.76
15:38:54 29.68
15:39:10 25.48
15:39:26 28.36
15:39:42 27.87
15:39:58 26.57
15:40:14 23.05
15:40:30 3.7
15:40:46 6.53
15:41:2 25.42
15:41:18 1.03
15:41:34 16.45
15:41:50 20.52
15:42:6 0.21
15:42:22 25.53
15:42:38 5.62
15:42:54 3.5
15:43:10 19.14
15:43:26 16.25
15:43:42 7.26
15:43:58 3.37
15:44:14 12.64
15:44:30 8.56
15:44:46 4.09
15:45:2 2.84
15:45:18 8.42
15:45:34 16.38
15:45:50 9.64
15:46:6 8.29
15:46:22 8.36
15:46:38 20.73
15:46:54 11.84
15:47:10 1.85
15:47:26 2.61
15:47:42 9.04
15:47:58 1.14
15:48:14 11.69
15:48:30 15.45
15:48:46 20.26
15:49:2 8.09
15:49:18 15.63
15:49:34 18.37
15:49:50 0.65
15:50:6 15.44
15:50:22 22.89
15:50:38 24.93
15:50:54 25.33
15:51:10 29.73
15:51:26 19.18
15:51:42 22.77
15:51:58 0.55
15:52:14 27.32
15:52:30 29.99
15:52:46 27.55
15:53:2 1.79
15:53:18 0.02
15:53:34 17.09
15:53:50 3.86
15:54:6 2.47
15:54:22 25.1
15:54:38 13.31
15:54:54 28.16
15:55:10 28.48
15:55:26 14.84
15:55:42 0.6
15:55:58 18.72
15:56:14 3.5
15:56:30 0.59
15:56:46 26.22
15:57:2 7.51
15:57:18 19.94
15:57:34 6.3
15:57:50 2.31
15:58:6 9.09
15:58:22 0.7
15:58:38 6.54
15:58:54 13.57
15:59:10 11.56
15:59:26 26.69
15:59:42 14.03
15:59:58 8.3
16:0:14 14.4
16:0:30 25.02
16:0:46 11.62
16:1:2 27.57
16:1:18 8.35
16:1:34 3.01
16:1:50 13.83
16:2:6 27.74
16:2:22 2.34
16:2:38 2.87
16:2:54 2.82
16:3:10 1.15
16:3:26 22.3
16:3:42 2.19
16:3:58 23.88
16:4:14 20.07
16:4:30 7.01
16:4:46 15.11
16:5:2 5.44
16:5:18 8.9
16:5:34 6.01
16:5:50 19.29
16:6:6 8.47
16:6:22 9.61
16:6:38 4.39
16:6:54 23.58
16:7:10 20.53
16:7:26 25.41
16:7:42 19.64
16:7:58 21.43
16:8:14 29.15
16:8:30 27.7
16:8:46 5.5
16:9:2 25.1
16:9:18 29.83
16:9:34 21.2
16:9:50 27.72
16:10:6 15.52
16:10:22 13.47
16:10:38 2.37
16:10:54 6.94
16:11:10 2.98
16:11:26 8.26
16:11:42 6.06
16:11:58 3.44
16:12:14 3.52
16:12:30 11.17
16:12:46 15.42
16:13:2 8.97
16:13:18 6.05
16:13:34 3.82
16:13:50 20.0
16:14:6 10.51
16:14:22 5.24
16:14:38 7.89
16:14:54 27.13
16:15:10 11.08
16:15:26 25.16
16:15:42 15.06
16:15:58 11.58
16:16:14 22.49
16:16:30 28.6
16:16:46 16.35
16:17:2 28.35
16:17:18 15.1
16:17:34 27.21
16:17:50 26.05
16:18:6 23.83
16:18:22 19.6
16:18:38 17.34
16:18:54 25.06
16:19:10 20.13
16:19:26 5.73
16:19:42 26.64
16:19:58 18.81
16:20:14 27.64
16:20:30 3.05
16:20:46 16.36
16:21:2 14.55
16:21:18 0.9
16:21:34 28.64
16:21:50 14.46
16:22:6 23.27
16:22:22 2.64
16:22:38 16.86
16:22:54 14.42
16:23:10 11.01
16:23:26 21.1
16:23:42 6.04
16:23:58 14.77
16:24:14 24.71
16:24:30 25.58
16:24:46 27.2
16:25:2 4.43
16:25:18 27.55
16:25:34 5.27
16:25:50 9.76
16:26:6 28.74
16:26:22 28.75
16:26:38 6.25
16:26:54 19.22
16:27:10 21.24
16:27:26 12.89
16:27:42 1.77
16:27:58 1.85
16:28:14 16.18
16:28:30 13.73
16:28:46 0.82
16:29:2 11.36
16:29:18 6.83
16:29:34 17.51
16:29:50 19.85
16:30:6 2.59
16:30:22 4.48
16:30:38 10.73
16:30:54 22.78
16:31:10 17.16
16:31:27 13.17
16:31:42 7.42
16:31:58 24.3
16:32:14 26.14
16:32:30 25.21
16:32:46 10.98
16:33:3 11.29
16:33:18 14.65
16:33:35 22.41
16:33:51 15.34
16:34:7 27.62
16:34:23 23.56
16:34:39 28.05
16:34:55 0.83
16:35:11 17.09
16:35:27 13.1
16:35:43 14.65
16:35:59 29.36
16:36:15 9.65
16:36:31 13.44
16:36:47 12.37
16:37:3 4.21
16:37:19 5.89
16:37:35 7.39
16:37:51 13.26
16:38:7 9.21
16:38:23 24.69
16:38:39 9.92
16:38:55 16.2
16:39:11 12.54
16:39:27 29.22
16:39:43 29.83
