10:54:25 26.95
10:54:33 1.65
10:54:49 17.05
10:55:5 6.8
10:55:21 26.64
11:15:29 12.11
11:15:45 7.41
11:16:1 17.92
11:17:53 21.61
11:18:9 16.14
11:18:25 11.65
11:18:41 21.01
11:18:57 25.76
11:19:13 16.59
11:19:29 24.44
11:19:45 3.55
11:20:1 0.09
11:20:17 0.83
11:20:33 15.5
11:20:49 14.35
11:21:5 8.23
11:21:21 3.55
11:21:37 6.85
11:21:53 15.76
11:22:9 2.64
11:22:25 5.54
11:22:41 17.94
11:22:57 4.0
11:23:13 19.4
11:23:29 20.2
11:23:45 22.49
11:24:1 24.56
11:24:17 20.68
11:24:33 11.54
11:24:49 10.33
11:25:5 26.45
11:25:21 29.87
11:25:37 18.52
11:25:53 19.42
11:26:25 4.2
11:26:41 20.72
11:27:13 15.67
11:27:29 0.15
11:28:33 16.28
11:28:49 15.98
11:29:5 1.76
11:29:21 5.5
11:29:37 8.88
11:29:53 1.77
11:30:9 15.62
11:30:25 9.34
11:30:41 5.06
11:30:57 19.2
11:31:14 21.51
11:31:29 9.34
11:31:45 28.57
11:32:1 24.31
11:32:17 5.16
11:32:33 23.69
11:32:49 3.2
11:33:5 6.65
11:33:37 27.53
11:33:53 8.81
11:34:9 24.59
11:34:25 29.23
11:34:41 21.97
11:34:57 4.92
11:35:13 11.89
11:35:30 5.69
11:35:45 2.09
11:36:1 27.03
11:36:17 0.75
11:36:33 18.21
11:36:49 18.7
11:37:5 0.42
11:37:21 26.18
11:37:37 5.89
11:37:53 19.06
11:38:9 26.71
11:38:25 26.69
11:38:41 19.26
11:38:57 21.37
11:39:13 17.9
11:39:29 26.45
11:39:45 28.88
11:40:1 8.24
11:40:17 13.14
11:40:33 13.71
11:40:49 3.95
11:41:5 3.94
11:41:21 23.03
11:41:37 10.67
11:41:53 6.11
11:42:9 20.55
11:42:9 20.55
11:42:25 16.61
11:42:25 16.61
11:42:41 19.67
11:42:57 13.34
11:43:13 7.96
11:43:29 5.92
11:43:29 5.92
11:43:45 10.79
11:44:1 28.92
11:44:1 28.92
11:44:17 2.76
11:44:17 2.76
11:44:33 3.2
11:44:33 3.2
11:44:49 25.73
11:44:49 25.73
11:45:5 10.62
11:45:5 10.62
11:45:21 11.02
11:45:21 11.02
11:45:38 15.65
11:45:38 15.65
11:45:53 23.17
11:45:53 23.17
11:46:9 24.87
11:46:9 24.87
11:46:25 29.84
11:46:25 29.84
11:46:42 2.94
11:46:58 20.42
11:47:13 11.18
11:47:29 12.89
11:47:46 22.19
11:48:1 6.48
11:48:1 6.48
11:48:18 11.6
11:48:34 4.72
11:48:49 5.62
11:49:5 1.4
11:49:22 10.27
11:49:22 10.27
11:49:37 9.0
11:49:37 9.0
11:49:53 25.91
11:49:53 25.91
11:50:9 7.12
11:50:9 7.12
11:50:25 28.2
11:50:25 28.2
11:50:42 25.59
11:50:42 25.59
11:50:58 13.97
11:50:58 13.97
11:51:14 14.57
11:51:14 14.57
11:51:30 8.04
11:51:30 8.04
11:51:46 1.5
11:51:46 1.5
11:52:2 24.57
11:52:2 24.57
11:52:18 22.18
11:52:18 22.18
11:52:34 14.06
11:52:34 14.06
11:52:50 10.71
11:52:50 10.71
11:53:6 14.4
11:53:6 14.4
11:53:22 20.77
11:53:22 20.77
11:53:38 12.2
11:53:38 12.2
11:53:54 17.83
11:54:10 17.82
11:54:10 17.82
11:54:26 19.79
11:54:42 25.23
11:55:14 15.24
11:55:30 9.93
11:55:46 18.1
11:56:2 16.73
11:56:18 19.11
11:56:34 27.1
11:56:50 8.28
11:57:6 18.29
11:57:22 2.49
11:57:38 2.77
11:57:54 26.36
11:58:10 11.8
11:58:26 15.27
11:58:42 15.69
11:58:58 1.64
11:59:14 25.73
11:59:30 23.01
11:59:46 29.94
12:0:2 7.95
12:0:18 22.55
12:0:34 23.4
12:0:50 4.44
12:1:6 14.49
12:1:22 19.44
12:1:38 5.3
12:1:54 28.69
12:2:10 26.83
12:2:26 2.94
12:2:42 5.44
12:2:58 20.02
12:3:14 3.07
12:3:30 12.42
12:3:46 7.7
12:4:2 17.08
12:4:18 10.02
12:4:34 17.43
12:4:50 0.06
12:5:6 4.78
12:5:22 4.6
12:5:38 23.96
12:5:54 24.12
12:6:10 5.58
12:6:26 5.25
12:6:42 4.51
12:6:58 22.23
12:7:14 2.14
12:7:30 8.57
12:7:46 27.03
12:8:2 7.3
12:8:18 6.32
12:8:34 26.01
12:8:50 27.76
12:9:6 0.15
12:9:22 19.57
12:9:38 15.66
12:9:54 22.96
12:10:10 19.52
12:10:26 19.7
12:10:42 24.22
12:10:58 24.4
12:11:14 19.73
12:11:30 18.96
12:11:46 14.04
12:12:2 3.84
12:12:18 0.84
12:12:34 28.57
12:12:50 20.3
12:13:6 11.3
12:13:22 6.6
12:13:38 4.56
12:13:54 23.28
12:14:10 12.24
12:14:26 24.84
12:14:42 29.95
12:14:58 0.79
12:15:14 28.57
12:15:30 15.6
12:15:46 28.4
12:16:2 25.67
12:16:18 28.56
12:16:34 21.83
12:16:50 14.12
12:17:6 3.45
12:17:22 0.58
12:17:38 17.71
12:17:54 23.2
12:18:10 25.09
12:18:26 15.78
12:18:42 19.6
12:18:58 11.34
12:19:14 29.86
12:19:30 24.51
12:19:46 24.58
12:20:2 2.82
12:20:18 23.36
12:20:34 1.78
12:20:50 1.65
12:21:6 26.02
12:21:22 25.57
12:21:38 6.39
12:21:54 10.49
12:22:10 0.14
12:22:26 4.13
12:22:42 19.13
12:22:58 12.92
12:23:14 8.38
12:23:30 17.65
12:23:46 24.66
12:24:2 21.86
12:24:18 12.49
12:24:34 14.18
12:24:50 22.39
12:25:6 3.03
12:25:22 13.61
12:25:38 19.82
12:25:54 11.18
12:26:10 24.19
12:26:26 14.59
12:26:42 12.35
12:26:58 22.89
12:27:14 7.01
12:27:30 8.56
12:27:46 5.08
12:28:2 9.83
12:28:18 26.57
12:28:34 8.96
12:28:50 25.8
12:29:6 21.05
12:29:22 3.5
12:29:38 15.89
12:29:54 5.79
12:30:10 22.51
12:30:26 3.67
12:30:42 23.83
12:30:58 13.99
12:31:14 6.13
12:31:30 20.55
12:31:46 25.75
12:32:2 11.29
12:32:18 12.69
12:32:34 5.19
12:32:50 28.57
12:33:6 9.92
12:33:22 23.59
12:33:38 8.78
12:33:54 4.96
12:34:10 22.99
12:34:26 6.48
12:34:42 2.87
12:34:58 6.6
12:35:14 29.07
12:35:30 9.82
12:35:46 22.17
12:36:2 3.67
12:36:18 27.0
12:36:34 21.16
12:36:50 14.98
12:37:6 5.83
12:37:22 15.71
12:37:38 24.47
12:37:54 16.25
12:38:10 29.51
12:38:27 4.23
12:38:42 1.2
12:38:58 28.26
12:39:14 16.57
12:39:30 6.78
12:39:46 10.25
12:40:3 13.86
12:40:19 19.31
12:40:35 7.99
12:40:51 1.85
12:41:7 17.44
12:41:22 6.91
12:41:39 3.25
12:41:55 10.21
12:42:11 8.38
12:42:27 28.2
12:42:43 9.12
12:42:59 20.16
12:43:15 2.23
12:43:31 25.73
12:43:47 28.95
12:44:3 2.54
12:44:19 24.44
12:44:35 6.35
12:44:51 18.55
12:45:7 13.53
12:45:23 21.75
12:45:39 13.03
12:45:55 16.97
12:46:11 12.85
12:46:27 6.17
12:46:43 3.11
12:46:59 7.46
12:47:15 15.75
12:47:31 26.57
12:47:47 7.9
12:48:3 3.48
12:48:19 23.99
12:48:35 12.93
12:48:51 18.66
12:49:7 14.86
12:49:23 20.55
12:49:39 18.17
12:49:55 3.93
12:50:11 29.09
12:50:27 13.33
12:50:43 2.57
12:50:59 13.22
12:51:15 22.7
12:51:31 22.64
12:51:47 15.9
12:52:3 22.11
12:52:19 17.75
12:52:35 27.57
12:52:51 12.09
12:53:7 13.67
12:53:23 18.48
12:53:39 6.25
12:53:55 1.52
12:54:11 11.28
12:54:27 23.05
12:54:43 25.0
12:54:59 15.95
12:55:15 17.78
12:55:31 5.37
12:55:47 1.22
12:56:3 21.1
12:56:19 26.03
12:56:35 2.11
12:56:51 25.34
12:57:7 1.76
12:57:23 25.82
12:57:39 19.78
12:57:55 26.46
12:58:11 24.59
12:58:27 22.14
12:58:43 16.94
12:59:0 27.0
12:59:15 23.52
12:59:31 19.79
12:59:47 6.52
13:0:3 11.08
13:0:19 12.74
13:0:35 19.46
13:0:51 23.28
13:1:7 21.89
13:1:23 22.36
13:1:39 10.04
13:1:55 1.36
13:2:11 22.87
13:2:27 11.61
13:2:43 2.39
13:2:59 26.96
13:3:15 17.72
13:3:31 14.75
13:3:47 29.46
13:4:3 21.16
13:4:19 24.39
13:4:35 24.54
13:4:51 7.74
13:5:7 7.79
13:5:23 7.79
13:5:39 18.29
13:5:55 15.14
13:6:11 21.48
13:6:27 26.5
13:6:43 21.64
13:6:59 10.18
13:7:15 0.85
13:7:31 8.27
13:7:47 14.85
13:8:3 27.58
13:8:19 11.69
13:8:35 9.4
13:8:51 26.77
13:9:7 25.17
13:9:24 5.42
13:9:39 13.01
13:9:55 11.39
13:10:11 27.28
13:10:27 27.54
13:10:43 1.16
13:10:59 2.03
13:11:15 9.35
13:11:31 21.29
13:11:47 15.84
13:12:3 18.15
13:12:20 19.0
13:12:35 21.34
13:12:51 13.81
13:13:7 9.74
13:13:23 8.47
13:13:40 2.65
13:13:55 10.35
13:14:11 4.38
13:14:28 23.37
13:14:43 29.48
13:14:59 16.84
13:15:15 21.9
13:15:31 12.84
13:15:47 29.41
13:16:3 27.2
13:16:19 11.6
13:16:36 26.08
13:16:51 17.61
13:17:7 8.26
13:17:23 7.2
13:17:40 0.22
13:17:56 6.1
13:18:12 28.91
13:18:28 4.29
13:18:44 24.56
13:19:0 3.21
13:19:16 3.17
13:19:32 25.49
13:19:48 16.22
13:20:4 28.17
13:20:20 22.14
13:20:36 28.16
13:20:52 22.1
13:21:8 5.72
13:21:24 29.76
13:21:40 29.77
13:21:56 22.27
13:22:11 5.93
13:22:28 27.5
13:22:44 15.87
13:23:0 29.61
13:23:16 4.1
13:23:32 12.88
13:23:48 5.67
13:24:4 21.01
13:24:20 15.81
13:24:36 26.85
13:24:52 20.25
13:25:8 14.71
13:25:24 22.01
13:25:40 25.09
13:25:56 28.42
13:26:12 9.21
13:26:28 29.32
13:26:44 8.09
13:27:0 5.07
13:27:16 8.42
13:27:32 10.36
13:27:48 5.19
13:28:4 27.35
13:28:20 28.21
13:28:36 9.3
13:28:52 17.43
13:29:8 3.22
13:29:24 9.35
13:29:40 7.43
13:29:56 24.28
13:30:12 7.86
13:30:28 11.8
13:30:44 13.89
13:31:0 9.23
13:31:16 12.48
13:31:32 15.36
13:31:48 6.5
13:32:4 19.29
13:32:20 10.91
13:32:36 1.69
13:32:52 7.78
13:33:8 3.27
13:33:24 18.73
13:33:40 2.72
13:33:56 10.93
13:34:12 14.03
13:34:28 20.01
13:34:44 10.39
13:35:0 11.14
13:35:16 9.53
13:35:32 26.71
13:35:48 2.79
13:36:4 6.79
13:36:20 17.75
13:36:36 25.68
13:36:52 11.65
13:37:8 15.95
13:37:24 20.52
13:37:40 8.23
13:37:56 6.19
13:38:12 2.93
13:38:28 21.16
13:38:44 7.43
13:39:0 28.37
13:39:16 29.88
13:39:32 11.04
13:39:48 7.9
13:40:4 24.47
13:40:20 18.64
13:40:36 29.98
13:40:52 13.3
13:41:8 18.04
13:41:24 7.59
13:41:40 5.5
13:41:56 16.39
13:42:12 9.26
13:42:28 18.72
13:42:44 16.0
13:43:0 6.75
13:43:16 5.61
13:43:32 29.68
13:43:48 2.72
13:44:4 1.11
13:44:20 18.97
13:44:36 6.1
13:44:52 25.64
13:45:8 21.23
13:45:24 13.99
13:45:40 8.93
13:45:56 28.19
13:46:12 4.51
13:46:28 2.96
13:46:44 1.94
13:47:0 25.92
13:47:16 22.11
13:47:32 1.9
13:47:48 4.29
13:48:4 13.9
13:48:20 9.76
13:48:36 13.17
13:48:52 3.26
13:49:8 28.1
13:49:24 16.16
13:49:40 19.3
13:49:56 2.12
13:50:12 15.6
13:50:28 24.0
13:50:44 3.33
13:51:0 8.02
13:51:16 8.66
13:51:32 18.59
13:51:48 10.36
13:52:4 5.11
13:52:20 17.65
13:52:36 19.09
13:52:52 25.62
13:53:8 17.72
13:53:24 17.88
13:53:40 27.45
13:53:56 13.81
13:54:12 8.63
13:54:28 15.26
13:54:44 29.81
13:55:0 14.84
13:55:16 17.55
13:55:32 25.85
13:55:48 5.67
13:56:4 10.92
13:56:20 14.59
13:56:37 14.3
13:56:52 19.59
13:57:8 0.06
13:57:24 23.97
13:57:40 16.06
13:57:56 20.54
13:58:12 20.88
13:58:28 22.76
13:58:44 8.61
13:59:0 23.81
13:59:16 23.82
13:59:32 19.8
13:59:48 26.41
14:0:4 0.66
14:0:20 23.73
14:0:36 29.68
14:0:52 24.8
14:1:8 0.43
14:1:24 8.79
14:1:40 16.88
14:1:56 17.76
14:2:12 10.44
14:2:28 10.81
14:2:44 4.99
14:3:1 24.5
14:3:16 18.32
14:3:32 21.92
14:3:49 6.11
14:4:5 19.98
14:4:20 22.11
14:4:36 12.61
14:4:53 25.29
14:5:9 24.22
14:5:25 2.9
14:5:41 6.13
14:5:57 5.13
14:6:13 15.52
14:6:29 25.14
14:6:45 14.27
14:7:2 25.49
14:7:17 12.58
14:7:33 29.47
14:7:49 29.5
14:8:5 23.35
14:8:21 10.4
14:8:37 23.28
14:8:53 28.46
14:9:9 7.69
14:9:25 25.15
14:9:41 23.84
14:9:57 1.88
14:10:13 4.62
14:10:29 22.8
14:10:45 9.03
14:11:1 25.79
14:11:17 17.51
14:11:33 16.73
14:11:49 10.67
14:12:5 29.13
14:12:21 17.32
14:12:37 19.09
14:12:53 5.58
14:13:9 22.75
14:13:25 7.98
14:13:41 11.14
14:13:57 9.11
14:14:13 24.73
14:14:29 1.95
14:14:45 7.37
14:15:1 26.36
14:15:17 27.12
14:15:33 10.85
14:15:49 18.54
14:16:5 26.07
14:16:21 18.99
14:16:37 6.24
14:16:53 18.53
14:17:9 11.97
14:17:25 20.9
14:17:41 15.5
14:17:57 20.17
14:18:13 26.96
14:18:29 25.69
14:18:45 7.8
14:19:1 4.78
14:19:17 14.69
14:19:33 10.71
14:19:49 5.26
14:20:5 20.72
14:20:21 3.93
14:20:37 6.3
14:20:53 14.16
14:21:9 15.7
14:21:25 0.45
14:21:41 25.75
14:21:57 1.29
14:22:13 18.04
14:22:29 21.56
14:22:45 21.58
14:23:1 20.43
14:23:17 21.77
14:23:33 18.3
14:23:49 3.16
14:24:5 23.92
14:24:21 10.53
14:24:37 0.14
14:24:53 0.79
14:25:9 4.38
14:25:25 15.46
14:25:41 17.43
14:25:57 11.01
14:26:13 1.52
14:26:29 11.85
14:26:45 16.36
14:27:1 28.38
14:27:17 19.07
14:27:33 29.73
14:27:49 1.62
14:28:5 28.64
14:28:21 16.85
14:28:37 13.26
14:28:53 11.59
14:29:9 8.12
14:29:25 22.94
14:29:41 14.07
14:29:57 11.24
14:30:13 4.65
14:30:29 20.93
14:30:45 13.4
14:31:1 17.57
14:31:17 24.77
14:31:33 17.4
14:31:49 18.11
14:32:5 22.72
14:32:21 12.29
14:32:37 4.37
14:32:53 25.6
14:33:9 29.66
14:33:25 23.29
14:33:41 11.98
14:33:57 22.58
14:34:13 5.53
14:34:29 22.39
14:34:45 26.25
14:35:1 2.66
14:35:17 7.57
14:35:33 5.48
14:35:49 26.92
14:36:5 17.9
14:36:21 16.68
14:36:37 13.75
14:36:53 10.48
14:37:9 9.15
14:37:25 3.6
14:37:41 24.14
14:37:57 13.26
14:38:13 0.25
14:38:29 2.69
14:38:45 1.1
14:39:1 29.66
14:39:17 11.19
14:39:33 28.36
14:39:49 4.78
14:40:5 20.47
14:40:21 5.04
14:40:37 29.08
14:40:53 10.51
14:41:9 26.4
14:41:25 3.78
14:41:41 14.02
14:41:58 24.74
14:42:13 11.55
14:42:30 28.03
14:42:49 7.33
14:43:5 2.27
14:43:20 22.22
14:43:38 25.57
14:43:50 25.01
14:44:5 29.89
14:44:21 15.62
14:44:40 13.84
14:44:55 29.41
14:45:13 11.37
14:45:27 3.89
14:45:45 1.16
14:46:0 26.31
14:46:17 8.82
14:46:32 18.07
14:46:46 1.98
14:47:1 19.7
14:47:18 25.4
14:47:34 27.3
14:47:50 10.88
14:48:5 19.09
14:48:21 24.45
14:48:38 8.11
14:48:54 10.45
14:49:9 24.52
14:49:25 19.93
14:49:41 28.79
14:49:57 28.11
14:50:13 4.06
14:50:29 13.25
14:50:46 3.93
14:51:1 16.71
14:51:18 29.1
14:51:33 1.48
14:51:49 4.03
14:52:5 24.06
14:52:22 12.09
14:52:37 11.9
14:52:53 25.28
14:53:9 6.29
14:53:25 22.05
14:53:41 27.93
14:53:57 14.38
14:54:13 20.08
14:54:30 22.53
14:54:45 1.45
14:55:2 13.58
14:55:17 28.8
14:55:33 7.36
14:55:49 26.43
14:56:5 20.73
14:56:21 27.43
14:56:37 8.88
14:56:53 28.99
14:57:9 29.54
14:57:25 21.48
14:57:42 23.87
14:57:57 8.8
14:58:13 24.88
14:58:29 24.61
14:58:45 22.06
14:59:1 6.83
14:59:17 8.25
14:59:33 0.26
14:59:49 22.26
15:0:5 24.49
15:0:21 8.35
15:0:37 2.09
15:0:53 11.12
15:1:9 29.16
15:1:25 1.79
15:1:41 18.28
15:1:57 19.52
15:2:13 0.99
15:2:29 28.82
15:2:46 14.7
15:3:1 11.51
15:3:17 6.22
15:3:33 9.35
15:3:50 11.96
15:4:5 20.96
15:4:21 11.73
15:4:37 23.91
15:4:53 1.33
15:5:10 10.75
15:5:26 26.0
15:5:42 24.84
15:5:58 14.52
15:6:14 9.65
15:6:30 11.5
15:6:46 12.56
15:7:2 2.31
15:7:18 1.72
15:7:34 3.34
15:7:50 1.96
15:8:6 17.06
15:8:22 3.44
15:8:38 29.4
15:8:54 3.91
15:9:10 24.13
15:9:26 13.36
15:9:42 26.69
15:9:58 6.87
15:10:14 17.07
15:10:30 29.43
15:10:46 9.23
15:11:2 3.64
15:11:18 1.78
15:11:34 28.92
15:11:50 22.2
15:12:6 18.23
15:12:22 14.48
15:12:38 15.95
15:12:54 17.44
15:13:10 27.83
15:13:26 8.54
15:13:42 1.68
15:13:58 25.43
15:14:14 4.87
15:14:30 15.22
15:14:46 22.04
15:15:2 8.51
15:15:18 4.29
15:15:34 23.25
15:15:50 28.19
15:16:6 10.54
15:16:22 10.84
15:16:38 12.27
15:16:54 24.45
15:17:10 17.9
15:17:26 11.49
15:17:42 5.14
15:17:58 18.99
15:18:14 26.89
15:18:30 8.05
15:18:46 4.17
15:19:2 12.07
15:19:18 2.46
15:19:34 14.83
15:19:50 6.11
15:20:6 6.87
15:20:22 13.3
15:20:38 26.4
15:20:54 21.12
15:21:10 28.0
15:21:26 18.35
15:21:42 0.55
15:21:58 20.51
15:22:14 12.58
15:22:30 9.63
15:22:46 21.32
15:23:2 8.45
15:23:18 8.95
15:23:34 16.46
15:23:50 27.09
15:24:6 22.45
15:24:22 8.04
15:24:38 16.02
15:24:54 18.94
15:25:10 17.75
15:25:26 22.27
15:25:42 5.34
15:25:58 13.93
15:26:14 10.6
15:26:30 7.15
15:26:46 9.54
15:27:2 28.67
15:27:18 15.35
15:27:34 0.42
15:27:50 11.59
15:28:6 17.92
15:28:22 0.47
15:28:38 13.92
15:28:54 28.33
15:29:10 23.31
15:29:26 28.38
15:29:42 22.94
15:29:58 17.84
15:30:14 7.21
15:30:30 24.21
15:30:46 8.28
15:31:2 23.29
15:31:18 16.67
15:31:34 28.35
15:31:50 5.94
15:32:6 28.08
15:32:22 2.54
15:32:38 17.93
15:32:54 29.3
15:33:10 17.3
15:33:26 28.65
15:33:42 2.15
15:33:58 29.1
15:34:14 20.67
15:34:30 16.13
15:34:46 16.45
15:35:2 25.88
15:35:18 1.78
15:35:34 27.87
15:35:50 0.6
15:36:6 10.14
15:36:22 28.69
15:36:38 28.04
15:36:54 25.62
15:37:10 15.04
15:37:26 20.96
15:37:42 1.77
15:37:58 14.54
15:38:14 16.78
15:38:30 17.93
15:38:46 29.99
15:39:2 22.11
15:39:18 7.58
15:39:34 23.51
15:39:50 4.24
15:40:6 8.31
15:40:22 16.26
15:40:38 12.23
15:40:54 16.77
15:41:10 20.72
15:41:26 1.42
15:41:42 21.71
15:41:58 0.67
15:42:14 20.84
15:42:30 22.3
15:42:46 16.47
15:43:2 15.07
15:43:18 29.16
15:43:34 12.21
15:43:50 18.12
15:44:6 20.61
15:44:22 4.2
15:44:38 9.58
15:44:54 6.93
15:45:10 29.84
15:45:26 10.34
15:45:42 21.65
15:45:58 29.75
15:46:14 17.88
15:46:30 29.59
15:46:46 15.74
15:47:2 19.27
15:47:18 28.13
15:47:34 2.16
15:47:50 23.19
15:48:6 29.73
15:48:22 8.13
15:48:38 20.95
15:48:54 10.86
15:49:10 3.91
15:49:26 20.49
15:49:42 4.84
15:49:58 15.27
15:50:14 16.51
15:50:30 3.99
15:50:46 5.96
15:51:2 14.4
15:51:18 18.95
15:51:34 29.78
15:51:50 25.69
15:52:6 2.04
15:52:22 0.46
15:52:38 17.66
15:52:54 14.63
15:53:10 9.77
15:53:26 10.6
15:53:42 7.56
15:53:58 11.39
15:54:14 1.61
15:54:30 28.11
15:54:46 11.03
15:55:2 15.28
15:55:18 16.21
15:55:34 21.13
15:55:50 27.95
15:56:6 27.81
15:56:22 1.75
15:56:38 3.79
15:56:54 3.27
15:57:10 8.14
15:57:26 18.35
15:57:42 14.21
15:57:58 8.95
15:58:14 27.31
15:58:30 13.19
15:58:46 28.79
15:59:2 5.94
15:59:18 6.38
15:59:34 23.16
15:59:50 7.93
16:0:6 11.33
16:0:22 13.49
16:0:38 10.26
16:0:54 28.06
16:1:10 25.61
16:1:26 24.65
16:1:42 4.44
16:1:58 5.13
16:2:14 4.99
16:2:30 3.55
16:2:46 29.2
16:3:2 14.35
16:3:18 13.96
16:3:34 15.12
16:3:50 4.77
16:4:6 21.38
16:4:22 2.8
16:4:38 28.03
16:4:54 3.86
16:5:10 29.88
16:5:26 5.39
16:5:42 21.03
16:5:58 5.07
16:6:14 0.38
16:6:30 21.97
16:6:46 18.13
16:7:2 28.92
16:7:18 5.55
16:7:34 22.13
16:7:50 7.74
16:8:6 11.5
16:8:22 6.86
16:8:38 22.88
16:8:54 0.52
16:9:10 0.66
16:9:26 17.56
16:9:42 16.83
16:9:58 1.27
16:10:14 29.98
16:10:30 7.05
16:10:47 5.48
16:11:2 29.58
16:11:18 15.16
16:11:34 11.62
16:11:50 2.68
16:12:6 24.35
16:12:22 18.18
16:12:38 16.54
16:12:54 23.13
16:13:10 7.26
16:13:26 24.03
16:13:42 14.57
16:13:58 11.04
16:14:14 9.97
16:14:30 25.0
16:14:46 15.75
16:15:2 23.93
16:15:18 20.34
16:15:34 7.67
16:15:50 23.63
16:16:6 26.5
16:16:22 22.39
16:16:38 7.51
16:16:54 22.82
16:17:10 29.63
16:17:26 25.22
16:17:42 6.0
16:17:58 22.97
16:18:14 19.53
16:18:30 5.73
16:18:46 15.49
16:19:2 24.03
16:19:18 21.94
16:19:34 20.24
16:19:50 6.64
16:20:6 7.97
16:20:22 16.55
16:20:38 19.98
16:20:54 23.4
16:21:10 1.75
16:21:26 16.41
16:21:42 15.45
16:21:58 20.72
16:22:14 16.82
16:22:30 27.58
16:22:46 4.6
16:23:2 9.82
16:23:19 29.82
16:23:35 23.79
16:23:51 9.93
16:24:6 16.07
16:24:23 19.76
16:24:38 11.3
16:24:55 29.46
16:25:10 14.49
16:25:26 16.5
16:25:43 18.86
16:25:58 6.55
16:26:15 7.93
16:26:30 25.67
16:26:46 27.72
16:27:3 13.52
16:27:19 22.75
16:27:35 24.87
16:27:51 6.84
16:28:7 4.29
16:28:23 7.24
16:28:39 16.31
16:28:55 8.21
16:29:11 20.76
16:29:27 7.55
16:29:43 0.76
16:29:59 7.2
16:30:15 28.06
16:30:31 6.33
16:30:47 7.94
16:31:3 13.16
16:31:19 23.77
16:31:35 8.91
16:31:51 18.18
16:32:7 15.03
16:32:23 15.92
16:32:39 2.16
16:32:55 0.54
16:33:11 17.09
16:33:27 4.83
16:33:43 10.92
16:33:59 22.22
16:34:15 29.89
16:34:31 13.95
16:34:47 27.08
16:35:3 24.42
16:35:19 1.22
16:35:35 4.39
16:35:51 6.22
16:36:7 29.47
16:36:23 2.22
16:36:39 18.5
16:36:55 6.99
16:37:11 14.43
16:37:27 23.62
16:37:43 27.16
16:37:59 7.96
16:38:15 5.96
16:38:31 27.1
16:38:47 6.02
16:39:3 17.18
16:39:19 21.63
16:39:35 26.77
16:39:51 15.62
