10:54:25 8.33
10:54:37 29.86
10:54:53 12.71
10:55:9 20.97
10:55:25 29.8
11:15:33 16.48
11:15:49 2.62
11:16:5 1.81
11:17:57 14.49
11:18:13 23.53
11:18:29 16.11
11:18:45 12.02
11:19:1 28.58
11:19:17 5.54
11:19:33 26.0
11:19:49 5.98
11:20:5 28.75
11:20:21 20.63
11:20:37 10.71
11:20:53 9.16
11:21:9 6.47
11:21:25 10.1
11:21:41 4.49
11:21:57 6.43
11:22:13 29.3
11:22:29 27.17
11:22:45 13.63
11:23:1 29.43
11:23:17 28.47
11:23:33 13.12
11:23:49 7.12
11:24:5 17.5
11:24:21 26.18
11:24:37 16.9
11:24:53 24.44
11:25:9 9.76
11:25:25 7.77
11:25:41 3.33
11:25:57 25.8
11:26:29 23.68
11:26:45 14.86
11:27:17 21.79
11:27:33 26.2
11:28:37 26.05
11:28:53 6.48
11:29:9 14.86
11:29:25 17.88
11:29:41 13.7
11:29:57 25.08
11:30:13 13.66
11:30:29 15.57
11:30:45 20.6
11:31:1 4.18
11:31:17 15.54
11:31:33 4.54
11:31:49 5.13
11:32:5 24.96
11:32:21 17.71
11:32:37 8.06
11:32:53 28.39
11:33:9 1.4
11:33:25 13.82
11:33:41 13.45
11:33:57 14.78
11:34:13 6.87
11:34:29 2.61
11:34:45 8.68
11:35:1 12.38
11:35:17 24.29
11:35:33 23.84
11:35:49 19.87
11:36:5 8.19
11:36:21 4.95
11:36:37 26.5
11:36:53 15.01
11:37:9 3.07
11:37:25 10.72
11:37:41 4.31
11:37:57 18.61
11:38:14 1.59
11:38:29 4.96
11:38:45 23.6
11:39:1 2.5
11:39:17 21.64
11:39:33 26.9
11:39:49 8.43
11:40:5 17.57
11:40:21 18.82
11:40:37 14.61
11:40:53 18.01
11:41:9 11.68
11:41:25 10.66
11:41:41 11.49
11:41:57 11.48
11:42:13 8.59
11:42:13 8.59
11:42:29 25.68
11:42:29 25.68
11:42:45 21.39
11:43:1 14.95
11:43:18 2.89
11:43:18 2.89
11:43:33 12.19
11:43:33 12.19
11:43:49 7.17
11:44:5 15.84
11:44:5 15.84
11:44:21 6.03
11:44:21 6.03
11:44:37 21.91
11:44:37 21.91
11:44:53 17.92
11:44:53 17.92
11:45:9 19.57
11:45:9 19.57
11:45:25 18.46
11:45:25 18.46
11:45:41 23.45
11:45:41 23.45
11:45:57 9.71
11:45:57 9.71
11:46:13 13.5
11:46:13 13.5
11:46:29 2.67
11:46:45 20.53
11:47:1 4.82
11:47:17 3.23
11:47:33 22.47
11:47:49 10.0
11:48:5 4.64
11:48:5 4.64
11:48:22 16.13
11:48:37 23.18
11:48:53 4.76
11:49:10 1.01
11:49:26 27.26
11:49:26 27.26
11:49:42 17.95
11:49:42 17.95
11:49:58 16.35
11:49:58 16.35
11:50:13 11.24
11:50:14 11.24
11:50:30 2.55
11:50:30 2.55
11:50:46 5.12
11:50:46 5.12
11:51:2 12.45
11:51:2 12.45
11:51:18 1.56
11:51:18 1.56
11:51:34 14.27
11:51:34 14.27
11:51:50 21.6
11:51:50 21.6
11:52:6 14.15
11:52:6 14.15
11:52:22 14.22
11:52:22 14.22
11:52:38 23.83
11:52:38 23.83
11:52:54 17.37
11:52:54 17.37
11:53:10 17.97
11:53:10 17.97
11:53:26 3.06
11:53:26 3.06
11:53:42 6.88
11:53:42 6.88
11:53:58 15.98
11:54:14 27.82
11:54:30 22.74
11:54:46 15.74
11:55:18 1.6
11:55:34 6.43
11:55:50 14.05
11:56:6 29.28
11:56:22 27.73
11:56:38 17.08
11:56:54 8.85
11:57:10 28.36
11:57:26 26.43
11:57:42 27.28
11:57:58 14.83
11:58:14 12.49
11:58:30 10.82
11:58:46 22.64
11:59:2 16.02
11:59:18 12.77
11:59:34 22.81
11:59:50 23.74
12:0:6 29.65
12:0:22 24.13
12:0:38 28.8
12:0:54 11.61
12:1:10 17.44
12:1:26 8.25
12:1:42 0.21
12:1:58 11.81
12:2:14 19.1
12:2:30 2.48
12:2:46 13.76
12:3:2 22.02
12:3:18 13.17
12:3:34 19.88
12:3:50 26.63
12:4:6 8.21
12:4:22 0.19
12:4:38 25.28
12:4:54 1.35
12:5:10 14.35
12:5:26 23.14
12:5:42 2.39
12:5:58 5.53
12:6:14 10.7
12:6:30 20.17
12:6:46 6.96
12:7:2 1.42
12:7:18 5.61
12:7:34 4.7
12:7:50 11.08
12:8:6 0.2
12:8:22 15.93
12:8:38 17.76
12:8:54 3.35
12:9:10 26.18
12:9:26 0.93
12:9:42 17.67
12:9:58 0.34
12:10:14 25.69
12:10:30 14.8
12:10:46 21.98
12:11:2 13.89
12:11:18 5.87
12:11:34 22.68
12:11:50 6.81
12:12:6 19.61
12:12:22 28.2
12:12:38 25.27
12:12:54 28.38
12:13:10 1.36
12:13:26 11.89
12:13:42 27.0
12:13:58 11.91
12:14:14 26.82
12:14:30 22.0
12:14:46 12.73
12:15:2 2.85
12:15:18 9.09
12:15:34 7.46
12:15:50 7.99
12:16:6 25.3
12:16:22 9.37
12:16:38 23.81
12:16:54 27.83
12:17:10 12.89
12:17:26 15.67
12:17:42 25.78
12:17:58 19.19
12:18:14 6.85
12:18:30 22.61
12:18:46 24.72
12:19:2 21.81
12:19:18 6.41
12:19:34 7.2
12:19:50 25.7
12:20:6 22.75
12:20:22 26.53
12:20:38 25.78
12:20:54 29.6
12:21:10 29.38
12:21:26 17.95
12:21:42 26.95
12:21:58 24.84
12:22:14 16.0
12:22:30 24.46
12:22:46 25.52
12:23:2 14.0
12:23:18 29.0
12:23:34 22.55
12:23:50 22.62
12:24:6 0.25
12:24:22 15.53
12:24:38 28.37
12:24:54 16.77
12:25:10 8.53
12:25:26 20.79
12:25:42 6.93
12:25:58 1.05
12:26:14 6.6
12:26:30 18.8
12:26:46 18.69
12:27:2 21.31
12:27:18 10.82
12:27:34 21.81
12:27:50 18.36
12:28:6 10.43
12:28:22 1.8
12:28:38 3.21
12:28:54 11.07
12:29:10 13.68
12:29:26 24.85
12:29:42 8.97
12:29:58 10.86
12:30:14 10.02
12:30:30 10.17
12:30:46 22.72
12:31:2 26.39
12:31:18 4.64
12:31:34 17.93
12:31:50 19.3
12:32:6 29.05
12:32:22 17.36
12:32:38 23.08
12:32:54 11.91
12:33:10 8.3
12:33:26 12.2
12:33:42 5.03
12:33:58 17.83
12:34:14 9.38
12:34:30 22.99
12:34:46 27.1
12:35:2 17.61
12:35:19 18.25
12:35:34 10.0
12:35:50 20.76
12:36:6 12.94
12:36:22 8.92
12:36:38 2.67
12:36:54 9.71
12:37:10 17.95
12:37:26 18.01
12:37:42 3.35
12:37:58 8.72
12:38:15 29.17
12:38:30 21.65
12:38:46 27.11
12:39:3 2.36
12:39:19 18.97
12:39:35 19.71
12:39:50 22.65
12:40:6 18.42
12:40:23 27.6
12:40:39 12.25
12:40:55 19.16
12:41:11 11.21
12:41:27 8.73
12:41:43 3.38
12:41:59 4.37
12:42:15 19.68
12:42:31 13.65
12:42:47 17.34
12:43:3 28.53
12:43:19 15.25
12:43:35 8.89
12:43:51 21.94
12:44:7 9.53
12:44:23 24.55
12:44:39 2.48
12:44:55 14.29
12:45:11 4.04
12:45:27 1.92
12:45:43 13.76
12:45:59 13.78
12:46:15 29.67
12:46:31 6.7
12:46:47 21.74
12:47:3 7.49
12:47:19 23.28
12:47:35 10.34
12:47:51 26.98
12:48:7 12.76
12:48:23 10.27
12:48:39 8.33
12:48:55 2.03
12:49:11 2.15
12:49:27 19.91
12:49:43 1.91
12:49:59 15.51
12:50:15 5.71
12:50:31 1.78
12:50:47 14.58
12:51:3 4.63
12:51:19 15.53
12:51:35 28.27
12:51:51 8.46
12:52:7 21.31
12:52:23 7.55
12:52:39 18.05
12:52:55 15.4
12:53:11 6.91
12:53:27 5.77
12:53:43 15.69
12:53:59 17.94
12:54:15 10.39
12:54:31 23.71
12:54:47 22.28
12:55:3 15.02
12:55:19 25.15
12:55:35 18.14
12:55:51 22.15
12:56:7 17.55
12:56:23 29.38
12:56:39 20.23
12:56:55 10.56
12:57:11 18.77
12:57:27 4.9
12:57:43 8.85
12:57:59 7.54
12:58:15 14.4
12:58:31 9.67
12:58:47 21.29
12:59:3 12.74
12:59:19 27.58
12:59:35 18.78
12:59:51 6.27
13:0:7 6.34
13:0:23 3.67
13:0:39 28.99
13:0:55 4.19
13:1:11 10.98
13:1:27 9.79
13:1:43 21.87
13:1:59 9.77
13:2:15 19.83
13:2:31 4.24
13:2:47 10.46
13:3:3 11.93
13:3:19 15.65
13:3:35 0.63
13:3:51 4.51
13:4:7 15.98
13:4:23 5.87
13:4:39 11.89
13:4:55 29.24
13:5:11 3.2
13:5:27 28.85
13:5:43 29.07
13:5:59 2.69
13:6:15 22.56
13:6:31 26.05
13:6:47 19.9
13:7:3 26.59
13:7:19 9.94
13:7:35 15.35
13:7:51 22.25
13:8:7 25.83
13:8:23 9.48
13:8:39 10.42
13:8:55 17.26
13:9:11 11.44
13:9:27 2.36
13:9:43 1.07
13:9:59 17.41
13:10:15 22.17
13:10:31 17.81
13:10:47 9.74
13:11:3 24.28
13:11:19 29.56
13:11:35 1.47
13:11:51 29.01
13:12:7 21.22
13:12:23 1.62
13:12:39 25.99
13:12:55 5.15
13:13:12 15.75
13:13:27 20.05
13:13:44 19.07
13:13:59 2.77
13:14:16 26.77
13:14:31 16.04
13:14:48 13.62
13:15:3 25.45
13:15:20 1.62
13:15:36 9.52
13:15:52 5.37
13:16:7 17.5
13:16:24 7.91
13:16:40 27.14
13:16:56 2.72
13:17:11 1.74
13:17:27 25.14
13:17:44 13.62
13:18:0 13.91
13:18:16 8.34
13:18:31 11.18
13:18:47 21.8
13:19:3 16.52
13:19:19 19.69
13:19:36 18.5
13:19:52 6.16
13:20:8 14.2
13:20:24 6.4
13:20:40 15.22
13:20:56 14.93
13:21:12 15.77
13:21:28 9.24
13:21:44 26.01
13:22:0 15.71
13:22:16 11.63
13:22:32 12.25
13:22:48 7.68
13:23:4 29.76
13:23:20 22.44
13:23:36 11.82
13:23:52 14.73
13:24:8 19.67
13:24:24 25.12
13:24:40 26.87
13:24:56 9.58
13:25:12 25.76
13:25:28 11.11
13:25:44 5.07
13:26:0 22.65
13:26:16 25.88
13:26:32 12.05
13:26:48 0.11
13:27:4 17.26
13:27:20 13.9
13:27:36 17.63
13:27:52 5.04
13:28:8 14.32
13:28:24 11.68
13:28:40 10.85
13:28:56 26.66
13:29:12 11.79
13:29:28 29.57
13:29:44 15.49
13:30:0 25.93
13:30:16 14.02
13:30:32 20.55
13:30:48 21.01
13:31:4 9.51
13:31:20 5.82
13:31:36 22.85
13:31:52 9.57
13:32:8 17.28
13:32:24 6.4
13:32:40 26.16
13:32:56 10.6
13:33:12 20.96
13:33:28 8.04
13:33:44 26.4
13:34:0 17.41
13:34:16 18.73
13:34:32 24.65
13:34:48 14.0
13:35:4 21.32
13:35:20 11.01
13:35:36 25.06
13:35:52 0.8
13:36:8 27.97
13:36:24 22.18
13:36:40 6.15
13:36:56 10.43
13:37:12 11.01
13:37:28 3.41
13:37:44 10.81
13:38:0 17.34
13:38:16 27.99
13:38:32 21.56
13:38:48 15.62
13:39:4 29.3
13:39:20 3.69
13:39:36 29.07
13:39:52 3.45
13:40:8 28.45
13:40:24 5.65
13:40:40 9.99
13:40:56 25.77
13:41:12 26.02
13:41:28 7.08
13:41:44 7.02
13:42:0 29.8
13:42:16 5.46
13:42:32 21.97
13:42:48 14.58
13:43:4 5.47
13:43:20 9.2
13:43:36 27.65
13:43:52 22.95
13:44:8 17.18
13:44:24 23.97
13:44:40 19.51
13:44:56 18.54
13:45:12 15.38
13:45:28 9.67
13:45:44 3.12
13:46:0 15.09
13:46:16 12.89
13:46:32 26.73
13:46:48 28.65
13:47:4 11.0
13:47:20 11.14
13:47:36 27.13
13:47:52 12.52
13:48:8 7.72
13:48:24 21.07
13:48:40 13.9
13:48:56 21.43
13:49:12 14.16
13:49:28 13.98
13:49:44 14.21
13:50:0 13.69
13:50:16 22.15
13:50:32 27.08
13:50:48 0.98
13:51:4 12.78
13:51:20 28.02
13:51:36 18.91
13:51:52 18.09
13:52:8 8.32
13:52:24 25.14
13:52:40 29.5
13:52:56 14.1
13:53:12 19.28
13:53:28 12.61
13:53:44 0.37
13:54:0 29.55
13:54:16 4.5
13:54:32 4.91
13:54:48 19.41
13:55:4 2.85
13:55:20 25.51
13:55:36 27.7
13:55:52 15.37
13:56:8 19.62
13:56:24 16.71
13:56:40 24.59
13:56:56 27.38
13:57:12 0.69
13:57:28 17.77
13:57:44 20.03
13:58:1 14.13
13:58:16 13.6
13:58:32 13.4
13:58:48 13.2
13:59:4 27.87
13:59:20 22.7
13:59:36 25.38
13:59:52 8.0
14:0:8 18.29
14:0:24 22.72
14:0:41 21.96
14:0:56 14.07
14:1:12 1.09
14:1:28 0.99
14:1:44 19.46
14:2:0 3.89
14:2:16 6.49
14:2:32 13.18
14:2:49 1.29
14:3:4 20.89
14:3:20 2.43
14:3:37 27.53
14:3:52 29.2
14:4:9 3.62
14:4:24 17.6
14:4:41 2.78
14:4:56 21.83
14:5:12 1.08
14:5:29 29.36
14:5:45 4.47
14:6:1 25.64
14:6:17 13.91
14:6:33 21.33
14:6:49 14.99
14:7:5 3.06
14:7:21 16.83
14:7:37 15.86
14:7:53 22.0
14:8:9 22.98
14:8:25 27.02
14:8:41 6.36
14:8:57 10.54
14:9:13 28.56
14:9:29 23.56
14:9:45 14.28
14:10:1 23.66
14:10:17 7.31
14:10:33 2.98
14:10:49 16.06
14:11:5 6.54
14:11:21 8.52
14:11:37 5.83
14:11:53 24.77
14:12:9 19.25
14:12:25 22.93
14:12:41 9.28
14:12:57 11.61
14:13:13 23.03
14:13:29 9.78
14:13:45 0.86
14:14:1 12.19
14:14:17 5.1
14:14:33 26.11
14:14:49 8.13
14:15:5 12.64
14:15:21 7.09
14:15:37 23.36
14:15:53 9.51
14:16:9 20.49
14:16:25 11.95
14:16:41 16.35
14:16:57 11.12
14:17:13 5.39
14:17:29 4.46
14:17:45 9.47
14:18:1 4.68
14:18:17 24.63
14:18:33 10.28
14:18:49 25.22
14:19:5 1.47
14:19:21 8.41
14:19:37 8.57
14:19:53 10.06
14:20:9 7.33
14:20:25 30.0
14:20:41 3.16
14:20:57 22.57
14:21:13 13.75
14:21:29 25.64
14:21:45 27.21
14:22:1 28.86
14:22:17 19.95
14:22:33 29.29
14:22:49 6.57
14:23:5 10.35
14:23:21 11.09
14:23:37 7.13
14:23:53 6.54
14:24:9 8.86
14:24:25 27.48
14:24:41 26.91
14:24:57 7.29
14:25:13 3.89
14:25:29 9.88
14:25:45 27.13
14:26:1 2.76
14:26:17 27.39
14:26:33 5.83
14:26:49 10.92
14:27:5 18.18
14:27:21 20.66
14:27:37 2.03
14:27:53 19.83
14:28:9 1.12
14:28:25 18.65
14:28:41 27.81
14:28:57 22.38
14:29:13 21.06
14:29:29 16.55
14:29:45 4.63
14:30:1 2.43
14:30:17 12.59
14:30:33 13.68
14:30:49 16.62
14:31:5 22.31
14:31:21 7.06
14:31:37 9.67
14:31:53 27.21
14:32:9 5.83
14:32:25 27.9
14:32:41 27.96
14:32:57 16.8
14:33:13 6.04
14:33:29 24.42
14:33:45 1.61
14:34:1 16.45
14:34:17 12.8
14:34:33 9.17
14:34:49 16.4
14:35:5 22.69
14:35:21 5.17
14:35:37 23.87
14:35:53 26.23
14:36:9 18.36
14:36:25 23.61
14:36:41 8.94
14:36:57 15.87
14:37:13 24.45
14:37:29 6.94
14:37:45 11.47
14:38:1 25.94
14:38:17 18.07
14:38:33 9.19
14:38:49 26.85
14:39:5 25.25
14:39:21 1.45
14:39:37 1.14
14:39:53 28.91
14:40:9 5.45
14:40:25 26.98
14:40:41 21.78
14:40:57 23.64
14:41:13 12.94
14:41:29 13.29
14:41:46 4.5
14:42:1 21.42
14:42:17 13.11
14:42:34 27.48
14:42:52 13.1
14:43:7 2.83
14:43:25 21.9
14:43:40 28.25
14:43:53 2.64
14:44:10 13.04
14:44:25 9.63
14:44:45 15.22
14:45:0 20.01
14:45:17 9.73
14:45:31 12.17
14:45:49 29.25
14:46:4 19.42
14:46:21 19.53
14:46:36 14.39
14:46:49 18.78
14:47:5 27.61
14:47:21 18.09
14:47:37 10.91
14:47:53 7.32
14:48:9 13.89
14:48:25 28.64
14:48:42 19.21
14:48:57 6.9
14:49:14 19.97
14:49:29 4.16
14:49:45 29.93
14:50:1 22.61
14:50:17 24.65
14:50:33 18.03
14:50:49 29.62
14:51:5 13.2
14:51:21 8.23
14:51:37 28.31
14:51:53 20.68
14:52:9 2.76
14:52:25 21.8
14:52:41 10.53
14:52:57 23.67
14:53:13 28.39
14:53:29 6.28
14:53:45 24.08
14:54:1 16.86
14:54:17 28.97
14:54:33 6.3
14:54:49 17.07
14:55:5 8.18
14:55:21 19.99
14:55:37 13.89
14:55:53 14.83
14:56:9 14.38
14:56:25 29.41
14:56:41 26.92
14:56:57 16.93
14:57:13 22.54
14:57:29 19.56
14:57:46 7.4
14:58:1 7.77
14:58:17 8.9
14:58:33 20.17
14:58:49 24.59
14:59:5 5.66
14:59:21 29.95
14:59:37 7.38
14:59:53 27.86
15:0:9 15.58
15:0:25 10.88
15:0:41 23.81
15:0:57 14.37
15:1:14 20.37
15:1:29 26.26
15:1:45 14.72
15:2:1 6.65
15:2:17 25.53
15:2:33 8.11
15:2:50 25.22
15:3:5 4.8
15:3:21 22.6
15:3:37 6.2
15:3:53 23.5
15:4:9 18.68
15:4:25 6.02
15:4:42 25.71
15:4:57 25.16
15:5:14 14.81
15:5:29 28.64
15:5:46 27.17
15:6:2 23.55
15:6:18 3.04
15:6:34 10.7
15:6:50 13.69
15:7:6 11.22
15:7:22 8.16
15:7:38 7.41
15:7:54 10.54
15:8:10 17.33
15:8:26 1.13
15:8:42 20.06
15:8:58 11.98
15:9:14 26.24
15:9:30 15.31
15:9:46 25.74
15:10:2 0.42
15:10:18 2.08
15:10:34 12.33
15:10:50 0.52
15:11:6 22.92
15:11:22 4.35
15:11:38 22.85
15:11:54 11.28
15:12:10 9.91
15:12:26 19.63
15:12:42 7.13
15:12:58 1.02
15:13:14 11.32
15:13:30 4.35
15:13:46 20.37
15:14:2 2.79
15:14:18 24.92
15:14:34 3.55
15:14:50 7.84
15:15:6 17.12
15:15:22 2.02
15:15:38 0.76
15:15:54 24.9
15:16:10 18.02
15:16:26 15.44
15:16:42 23.89
15:16:58 26.69
15:17:14 12.56
15:17:30 4.84
15:17:46 12.23
15:18:2 22.79
15:18:18 19.0
15:18:34 14.28
15:18:50 29.41
15:19:6 11.51
15:19:22 8.42
15:19:38 7.17
15:19:54 27.53
15:20:10 9.13
15:20:26 4.96
15:20:42 23.43
15:20:58 17.26
15:21:14 8.87
15:21:30 29.62
15:21:46 4.01
15:22:2 29.03
15:22:18 4.65
15:22:34 22.58
15:22:50 17.74
15:23:6 0.24
15:23:22 4.74
15:23:38 29.09
15:23:54 5.42
15:24:10 23.61
15:24:26 20.11
15:24:42 3.92
15:24:58 16.28
15:25:14 11.48
15:25:30 12.66
15:25:46 29.33
15:26:2 21.66
15:26:18 21.22
15:26:34 28.23
15:26:50 1.69
15:27:6 11.09
15:27:22 26.68
15:27:38 19.38
15:27:54 1.5
15:28:10 25.61
15:28:26 20.74
15:28:42 3.06
15:28:58 12.13
15:29:14 23.44
15:29:30 13.82
15:29:46 28.0
15:30:2 22.01
15:30:18 12.89
15:30:34 3.54
15:30:50 26.94
15:31:6 15.37
15:31:22 17.65
15:31:38 20.38
15:31:54 18.65
15:32:10 16.62
15:32:26 9.32
15:32:42 24.39
15:32:58 14.82
15:33:14 23.2
15:33:30 2.32
15:33:46 28.03
15:34:2 6.64
15:34:18 22.03
15:34:34 26.01
15:34:50 9.95
15:35:6 16.27
15:35:22 14.49
15:35:38 19.17
15:35:54 24.91
15:36:10 18.09
15:36:26 4.98
15:36:42 21.82
15:36:58 14.73
15:37:14 14.78
15:37:30 28.0
15:37:46 19.26
15:38:2 25.27
15:38:18 13.12
15:38:34 18.82
15:38:50 23.47
15:39:6 4.54
15:39:22 4.73
15:39:38 22.69
15:39:54 16.8
15:40:10 6.75
15:40:26 26.48
15:40:42 7.61
15:40:58 12.99
15:41:14 7.51
15:41:30 15.79
15:41:46 15.63
15:42:2 10.44
15:42:18 5.04
15:42:34 15.71
15:42:50 7.74
15:43:6 2.81
15:43:22 2.48
15:43:38 24.79
15:43:54 17.29
15:44:10 2.0
15:44:26 6.16
15:44:42 16.79
15:44:58 26.98
15:45:14 28.26
15:45:30 25.05
15:45:46 25.15
15:46:2 4.39
15:46:18 22.81
15:46:34 26.13
15:46:50 7.31
15:47:6 21.08
15:47:22 27.6
15:47:38 10.96
15:47:54 13.79
15:48:10 20.25
15:48:26 17.46
15:48:42 18.19
15:48:58 17.11
15:49:14 27.91
15:49:30 29.55
15:49:46 7.15
15:50:2 15.51
15:50:18 12.65
15:50:34 5.08
15:50:50 27.54
15:51:6 6.44
15:51:22 8.96
15:51:38 18.35
15:51:54 0.14
15:52:10 24.91
15:52:26 9.12
15:52:42 8.11
15:52:58 23.55
15:53:14 21.6
15:53:30 28.54
15:53:46 16.23
15:54:2 22.05
15:54:18 15.8
15:54:34 29.83
15:54:50 18.6
15:55:6 9.45
15:55:22 28.12
15:55:38 20.27
15:55:54 23.48
15:56:10 24.04
15:56:26 18.08
15:56:42 7.93
15:56:58 1.99
15:57:14 19.58
15:57:30 21.41
15:57:46 11.26
15:58:2 26.0
15:58:18 27.32
15:58:34 22.19
15:58:50 17.35
15:59:6 28.34
15:59:22 4.11
15:59:38 24.87
15:59:54 23.62
16:0:10 10.25
16:0:26 11.56
16:0:42 10.96
16:0:58 28.18
16:1:14 21.19
16:1:30 21.22
16:1:46 5.62
16:2:2 13.63
16:2:18 15.89
16:2:34 20.87
16:2:50 29.04
16:3:6 29.51
16:3:22 23.78
16:3:38 16.83
16:3:54 7.59
16:4:10 28.27
16:4:26 15.69
16:4:42 7.31
16:4:58 19.82
16:5:14 9.76
16:5:30 22.84
16:5:46 1.86
16:6:2 22.21
16:6:18 9.34
16:6:34 13.16
16:6:50 11.81
16:7:6 29.8
16:7:22 4.51
16:7:38 19.89
16:7:54 26.88
16:8:10 16.54
16:8:26 25.06
16:8:42 27.53
16:8:58 22.66
16:9:14 0.52
16:9:30 1.86
16:9:46 20.0
16:10:2 14.37
16:10:18 28.95
16:10:34 29.13
16:10:50 26.26
16:11:6 21.46
16:11:22 17.97
16:11:38 5.29
16:11:54 28.07
16:12:10 18.42
16:12:26 2.25
16:12:42 17.37
16:12:58 15.14
16:13:15 6.59
16:13:30 29.45
16:13:46 13.96
16:14:2 22.61
16:14:18 11.98
16:14:34 14.36
16:14:50 11.75
16:15:6 15.75
16:15:22 24.21
16:15:38 18.02
16:15:54 10.57
16:16:10 27.04
16:16:26 11.5
16:16:42 6.47
16:16:58 22.04
16:17:14 20.51
16:17:30 26.68
16:17:46 4.41
16:18:2 16.71
16:18:18 8.43
16:18:34 29.24
16:18:50 28.66
16:19:6 14.86
16:19:22 15.24
16:19:38 8.54
16:19:54 26.37
16:20:10 5.7
16:20:26 23.82
16:20:42 2.92
16:20:58 13.1
16:21:14 10.3
16:21:30 9.12
16:21:46 0.0
16:22:2 5.63
16:22:18 2.92
16:22:34 13.98
16:22:50 2.96
16:23:6 4.67
16:23:22 6.0
16:23:38 12.32
16:23:55 7.89
16:24:10 12.28
16:24:27 13.65
16:24:43 24.67
16:24:59 27.21
16:25:14 9.14
16:25:30 28.74
16:25:46 20.93
16:26:3 24.12
16:26:19 26.66
16:26:35 18.45
16:26:51 15.47
16:27:7 13.13
16:27:23 28.8
16:27:39 13.52
16:27:55 9.54
16:28:11 11.65
16:28:27 8.79
16:28:43 5.94
16:28:59 5.99
16:29:15 7.56
16:29:31 15.62
16:29:47 20.2
16:30:3 21.27
16:30:19 17.96
16:30:35 5.29
16:30:51 13.19
16:31:7 19.74
16:31:23 13.87
16:31:39 11.93
16:31:55 7.52
16:32:11 25.29
16:32:27 26.03
16:32:43 23.72
16:32:59 23.54
16:33:15 5.3
16:33:31 26.75
16:33:47 28.54
16:34:3 4.76
16:34:19 21.84
16:34:35 22.8
16:34:51 4.54
16:35:7 21.96
16:35:23 5.2
16:35:39 14.37
16:35:55 20.4
16:36:11 20.78
16:36:27 4.77
16:36:43 15.1
16:36:59 10.5
16:37:15 27.87
16:37:31 2.14
16:37:47 28.11
16:38:3 19.79
16:38:19 20.63
16:38:35 21.58
16:38:51 23.17
16:39:7 3.55
16:39:23 15.49
16:39:39 12.78
