15:2:3 13.76
15:2:19 13.75
15:2:35 13.74
15:2:51 13.73
15:3:6 13.75
15:3:23 13.79
15:3:38 13.81
15:3:54 13.84
15:4:10 13.85
15:4:26 13.87
15:4:42 13.9
15:4:58 13.94
15:5:14 13.98
15:5:30 14.01
15:5:45 14.03
15:6:2 14.06
15:6:17 14.07
15:6:34 14.09
15:6:49 14.08
15:7:5 14.06
15:7:21 14.07
15:7:37 14.1
15:7:53 14.11
15:8:9 14.12
15:8:24 14.13
15:8:41 14.16
15:8:56 14.2
15:9:13 14.25
15:9:28 14.3
15:9:44 14.32
15:10:0 14.32
15:10:16 14.31
15:10:32 14.35
15:10:48 14.39
15:11:4 14.42
15:11:20 14.42
15:11:35 14.4
15:11:52 14.42
15:12:7 14.41
15:12:23 14.34
15:12:39 14.26
15:12:55 14.23
15:13:11 14.21
15:13:27 14.16
15:13:43 14.2
15:13:59 14.27
15:14:14 14.31
15:14:31 14.36
15:14:46 14.45
15:15:2 14.56
15:15:18 14.6
15:15:34 14.6
15:15:50 14.61
15:16:6 14.67
15:16:22 14.7
15:16:38 14.7
15:16:53 14.71
15:17:10 14.74
15:17:25 14.84
15:17:42 14.96
15:17:57 15.11
15:18:13 15.21
15:18:29 15.21
15:18:45 15.21
15:19:1 15.25
15:19:17 15.3
15:19:32 15.44
15:19:49 15.5
15:20:4 15.71
15:20:21 15.87
15:20:36 15.84
15:20:52 15.66
15:21:8 15.44
15:21:24 15.21
15:21:40 14.89
15:21:56 14.74
15:22:11 14.75
15:22:28 14.91
15:22:43 15.26
15:23:0 15.6
15:23:15 15.87
15:23:31 15.93
15:23:47 15.81
15:24:3 15.66
15:24:19 15.57
15:24:35 15.51
15:24:51 15.56
15:25:7 15.68
15:25:22 15.66
15:25:39 15.55
15:25:54 15.56
15:26:10 15.59
15:26:26 15.74
15:26:42 15.81
15:26:58 15.8
15:27:14 15.73
15:27:30 15.62
15:27:46 15.57
15:28:1 15.68
15:28:18 15.95
15:28:33 16.11
15:28:49 16.09
15:29:5 16.17
15:29:21 16.31
15:29:37 16.46
15:29:53 16.63
15:30:9 16.84
15:30:25 17.01
15:30:40 17.09
15:30:57 17.38
15:31:12 17.69
15:31:29 18.05
15:31:44 18.16
15:32:0 18.28
15:32:16 18.34
15:32:32 18.04
15:32:48 17.65
15:33:4 17.63
15:33:19 17.57
15:33:36 17.24
15:33:51 16.99
15:34:8 16.97
15:34:23 16.95
15:34:39 16.89
15:34:55 16.56
15:35:11 15.92
15:35:27 15.54
15:35:43 15.35
15:35:59 15.37
15:36:15 15.26
15:36:30 15.13
15:36:47 15.08
15:37:2 15.06
15:37:18 15.05
15:37:34 15.08
15:37:50 15.12
15:38:6 15.05
15:38:22 14.95
15:38:38 14.91
15:38:54 14.85
15:39:9 14.76
15:39:26 14.64
15:39:41 14.68
15:39:57 14.6
15:40:13 14.57
15:40:29 14.59
15:40:45 14.57
15:41:1 14.61
15:41:17 14.65
15:41:33 14.67
15:41:48 14.67
15:42:5 14.65
15:42:20 14.67
15:42:37 14.69
15:42:52 14.69
15:43:8 14.62
15:43:24 14.63
15:43:40 14.62
15:43:56 14.64
15:44:12 14.7
15:44:27 14.8
15:44:44 14.84
15:44:59 14.79
15:45:16 14.72
15:45:31 14.65
15:45:47 14.54
15:46:3 14.53
15:46:19 14.58
15:46:35 14.63
15:46:51 14.69
15:47:6 14.8
15:47:23 14.85
15:47:38 14.9
15:47:55 14.99
15:48:10 14.94
15:48:26 14.96
15:48:42 15.04
15:48:58 15.18
15:49:14 15.24
15:49:30 15.32
15:49:46 15.57
15:50:2 16.01
15:50:17 16.19
15:50:34 16.32
15:50:49 16.42
15:51:5 16.48
15:51:21 16.42
15:51:37 16.28
15:51:53 16.15
15:52:9 16.03
15:52:25 15.88
15:52:41 15.7
15:52:56 15.58
15:53:13 15.48
15:53:28 15.45
15:53:44 15.4
15:54:0 15.38
15:54:16 15.43
15:54:32 15.47
15:54:48 15.47
15:55:4 15.5
15:55:20 15.58
15:55:35 15.63
15:55:52 15.63
15:56:7 15.63
15:56:24 15.68
15:56:39 15.71
15:56:55 15.71
15:57:11 15.73
15:57:27 15.66
15:57:43 15.51
15:57:59 15.34
15:58:14 15.01
15:58:31 14.73
15:58:46 14.62
15:59:3 14.64
15:59:18 14.67
15:59:34 14.68
15:59:50 14.72
16:0:6 14.72
16:0:22 14.72
16:0:38 14.64
16:0:53 14.61
16:1:10 14.76
16:1:25 14.93
16:1:42 15.02
16:1:57 15.1
16:2:13 15.14
16:2:29 15.2
16:2:45 15.32
16:3:1 15.45
16:3:17 15.46
16:3:33 15.28
16:3:49 15.13
16:4:4 15.05
16:4:21 15.04
16:4:36 15.03
16:4:52 15.0
16:5:8 15.02
16:5:24 15.07
16:5:40 15.14
16:5:56 15.17
16:6:12 15.14
16:6:28 15.1
16:6:43 15.04
16:7:0 15.04
16:7:15 15.1
16:7:31 15.25
16:7:47 15.36
16:8:3 15.38
16:8:19 15.35
16:8:35 15.3
16:8:51 15.28
16:9:7 15.26
16:9:22 15.3
16:9:39 15.37
16:9:54 15.41
16:10:11 15.42
16:10:26 15.46
16:10:42 15.44
16:10:58 15.36
16:11:14 15.28
16:11:30 15.23
16:11:46 15.22
16:12:1 15.28
16:12:18 15.25
16:12:33 15.19
16:12:50 15.14
16:13:5 15.12
16:13:21 14.98
16:13:37 14.92
16:13:53 15.01
16:14:9 15.2
16:14:25 15.45
16:14:41 15.67
16:14:57 15.84
16:15:12 16.07
16:15:29 16.37
16:15:44 16.64
16:16:0 16.94
16:16:16 17.27
16:16:32 17.72
16:16:48 18.09
16:17:4 18.24
16:17:20 18.28
16:17:36 18.29
16:17:51 18.2
16:18:8 18.13
16:18:23 18.11
16:18:39 18.15
16:18:55 18.0
16:19:11 17.98
16:19:27 18.11
16:19:43 18.18
16:19:59 18.3
16:20:15 18.51
16:20:30 18.89
16:20:47 19.01
16:21:2 18.91
16:21:18 18.62
16:21:34 18.29
16:21:50 18.3
16:22:6 18.71
16:22:22 18.69
16:22:38 18.52
16:22:54 18.5
16:23:9 18.56
16:23:26 18.88
16:23:41 19.23
16:23:58 19.24
16:24:13 19.14
16:24:29 19.14
16:24:45 18.68
16:25:1 18.44
16:25:17 18.48
16:25:33 18.4
16:25:48 18.14
16:26:5 17.94
16:26:20 17.76
16:26:37 17.67
16:26:52 17.63
16:27:8 17.74
16:27:24 17.93
16:27:40 18.15
16:27:56 18.22
16:28:12 18.2
16:28:28 18.21
16:28:44 18.12
16:28:59 18.09
16:29:16 17.83
16:29:31 17.46
16:29:47 17.16
16:30:3 17.07
16:30:19 17.08
16:30:35 16.98
16:30:51 16.97
16:31:7 17.06
16:31:23 17.23
16:31:38 17.45
16:31:55 17.77
16:32:10 17.95
16:32:27 17.9
16:32:42 17.76
16:32:58 17.55
16:33:14 17.39
16:33:30 17.32
16:33:46 17.22
16:34:2 17.18
16:34:17 17.18
16:34:34 17.39
16:34:49 17.6
16:35:6 17.89
16:35:21 18.01
16:35:37 17.93
16:35:53 17.72
16:36:9 17.54
16:36:25 17.37
16:36:41 17.55
16:36:56 17.51
16:37:13 17.18
16:37:28 16.9
16:37:45 16.63
16:38:0 16.38
16:38:16 16.19
16:38:32 16.06
16:38:48 15.96
16:39:4 15.88
16:39:20 15.78
16:39:36 15.72
16:39:52 15.78
16:40:7 15.85
16:40:24 15.99
16:40:39 16.09
16:40:55 16.1
16:41:11 15.99
16:41:27 15.86
16:41:43 15.79
16:41:59 15.8
16:42:15 15.81
16:42:31 15.79
16:42:46 15.83
16:43:3 15.92
16:43:18 16.07
16:43:35 16.38
16:43:50 16.63
16:44:6 16.67
16:44:22 16.83
16:44:38 16.98
16:44:54 17.09
16:45:10 17.22
16:45:25 17.47
16:45:42 17.43
16:45:57 17.36
16:46:14 17.31
16:46:29 17.31
16:46:45 17.32
16:47:1 17.29
16:47:17 17.5
16:47:33 17.73
16:47:49 17.96
16:48:4 17.99
16:48:21 17.99
16:48:36 17.84
16:48:53 17.59
16:49:8 17.45
16:49:24 17.37
16:49:40 17.21
16:49:56 17.16
16:50:12 17.08
16:50:28 16.87
16:50:44 16.7
16:51:0 16.56
16:51:15 16.52
16:51:32 16.5
16:51:47 16.52
16:52:3 16.75
16:52:19 16.87
16:52:35 16.84
16:52:51 16.94
16:53:7 17.06
16:53:23 17.09
16:53:39 17.01
16:53:54 16.95
16:54:11 16.94
16:54:26 16.99
16:54:43 17.08
16:54:58 17.08
16:55:14 17.07
16:55:30 17.12
16:55:46 17.22
16:56:2 17.39
16:56:18 17.56
16:56:33 17.61
16:56:50 17.56
16:57:5 17.48
16:57:22 17.39
16:57:37 17.42
16:57:53 17.32
16:58:9 17.23
16:58:25 17.34
16:58:41 17.36
16:58:57 17.35
16:59:13 17.31
16:59:29 17.14
16:59:44 16.88
17:0:1 16.66
17:0:16 16.45
17:0:32 16.39
17:0:48 16.47
17:1:4 16.52
17:1:20 16.46
17:1:36 16.41
17:1:52 16.48
17:2:8 16.48
17:2:23 16.41
17:2:40 16.31
17:2:55 16.3
17:3:12 16.2
17:3:27 16.06
17:3:43 15.88
17:3:59 15.76
17:4:15 15.74
17:4:31 15.84
17:4:47 15.98
17:5:2 16.01
17:5:19 15.99
17:5:34 16.0
17:5:51 15.97
17:6:6 15.9
17:6:22 15.76
17:6:38 15.69
17:6:54 15.57
17:7:10 15.46
17:7:26 15.38
17:7:42 15.34
17:7:58 15.34
17:8:13 15.3
17:8:30 15.26
17:8:45 15.19
17:9:1 15.1
17:9:17 15.04
17:9:33 15.04
17:9:49 15.03
17:10:5 14.99
17:10:21 14.98
17:10:37 14.95
17:10:52 14.9
17:11:9 14.84
17:11:24 14.8
17:11:41 14.77
17:11:56 14.72
17:12:12 14.64
17:12:28 14.57
17:12:44 14.57
17:13:0 14.62
17:13:16 14.67
17:13:31 14.63
17:13:48 14.6
17:14:3 14.53
17:14:20 14.46
17:14:35 14.41
17:14:51 14.39
17:15:7 14.36
17:15:23 14.3
17:15:39 14.27
17:15:55 14.31
17:16:11 14.33
17:16:27 14.3
17:16:42 14.26
17:16:59 14.22
17:17:14 14.22
17:17:31 14.21
17:17:46 14.21
17:18:2 14.2
17:18:18 14.18
17:18:34 14.17
17:18:50 14.21
17:19:6 14.18
17:19:21 14.15
17:19:38 14.19
17:19:53 14.21
17:20:10 14.15
17:20:25 14.11
17:20:41 14.09
17:20:57 14.07
17:21:13 14.06
17:21:29 14.05
17:21:45 14.03
17:22:0 14.02
17:22:17 14.0
17:22:32 13.97
17:22:49 13.96
17:23:4 13.94
17:23:20 13.96
17:23:36 13.98
17:23:52 13.97
17:24:8 13.93
17:24:24 13.9
17:24:40 13.89
17:24:56 13.92
17:25:11 13.94
17:25:28 13.93
17:25:43 13.92
17:25:59 13.88
17:26:15 13.87
17:26:31 13.9
17:26:47 13.86
17:27:3 13.84
17:27:19 13.8
17:27:35 13.8
17:27:50 13.74
17:28:7 13.74
17:28:22 13.68
17:28:39 13.64
17:28:54 13.63
17:29:10 13.6
17:29:26 13.55
17:29:42 13.54
17:29:58 13.52
17:30:14 13.46
17:30:29 13.44
17:30:46 13.4
17:31:1 13.4
17:31:18 13.41
17:31:33 13.42
17:31:49 13.4
17:32:5 13.39
17:32:21 13.39
17:32:37 13.41
17:32:53 13.42
17:33:9 13.42
17:33:25 13.37
17:33:40 13.37
17:33:57 13.35
17:34:12 13.36
17:34:28 13.34
17:34:44 13.32
17:35:0 13.3
17:35:16 13.28
17:35:32 13.23
17:35:48 13.19
17:36:6 13.16
21:44:57 9.88
21:45:13 9.86
21:45:28 9.87
21:45:45 9.89
21:46:0 9.89
21:46:17 9.87
21:46:32 9.85
21:46:48 9.86
21:47:4 9.85
21:47:20 9.89
21:47:36 9.95
21:47:52 9.99
21:48:8 10.07
21:48:24 10.11
21:48:39 10.14
21:48:56 10.16
21:49:11 10.14
21:49:27 10.12
21:49:43 10.12
21:49:59 10.11
21:50:15 10.08
21:50:31 10.04
21:50:47 10.01
21:51:3 9.98
21:51:18 9.94
21:51:35 9.88
21:51:50 9.86
21:52:6 9.84
21:52:22 9.81
21:52:38 9.81
21:52:54 9.83
21:53:10 9.84
21:53:26 9.86
21:53:42 9.89
21:53:57 9.9
21:54:14 9.89
21:54:29 9.87
21:54:46 9.89
21:55:1 9.91
21:55:17 9.9
21:55:33 9.88
21:55:49 9.83
21:56:5 9.79
21:56:21 9.72
21:56:36 9.64
21:56:53 9.55
21:57:8 9.48
21:57:25 9.44
21:57:40 9.4
21:57:56 9.35
21:58:12 9.34
21:58:28 9.34
21:58:44 9.33
21:59:0 9.32
21:59:16 9.31
21:59:32 9.3
21:59:47 9.28
22:0:4 9.27
22:0:19 9.27
22:0:35 9.25
22:0:51 9.24
22:1:7 9.26
22:1:23 9.28
22:1:39 9.31
22:1:55 9.33
22:2:11 9.36
22:2:26 9.37
22:2:43 9.36
22:2:58 9.36
22:3:15 9.38
22:3:30 9.39
22:3:46 9.39
22:4:2 9.38
22:4:18 9.33
22:4:34 9.3
22:4:50 9.24
22:5:5 9.2
22:5:22 9.15
22:5:37 9.12
22:5:54 9.09
22:6:9 9.06
22:6:25 9.02
22:6:41 9.0
22:6:57 8.97
22:7:13 8.96
22:7:29 8.97
22:7:44 8.97
22:8:1 9.03
22:8:16 9.07
22:8:33 9.04
22:8:48 9.01
22:9:4 9.0
22:9:20 9.02
22:9:36 9.04
22:9:52 9.05
22:10:8 9.07
22:10:24 9.08
22:10:40 9.08
22:10:55 9.07
22:11:12 9.03
22:11:27 9.02
22:11:43 9.01
22:11:59 8.97
22:12:15 9.02
22:12:31 9.04
22:12:47 9.03
22:13:3 9.03
22:13:19 9.05
22:13:34 9.04
22:13:51 9.06
22:14:6 9.06
22:14:22 9.05
22:14:38 9.06
22:14:54 9.08
22:15:10 9.05
22:15:26 9.04
22:15:42 9.04
22:15:58 9.06
22:16:13 9.07
22:16:30 9.09
22:16:45 9.08
22:17:2 9.1
22:17:17 9.09
22:18:5 9.01
22:18:21 8.98
22:18:37 8.97
22:18:52 8.99
22:19:9 8.97
22:19:24 8.96
22:19:41 8.94
22:25:30 8.96
22:25:46 8.98
22:26:2 8.97
22:26:18 8.97
22:26:34 8.98
22:26:50 8.98
22:27:6 8.93
22:27:21 8.89
22:27:38 8.87
22:27:53 8.84
22:28:10 8.81
22:28:25 8.78
22:28:41 8.77
22:28:57 8.81
22:29:13 8.84
22:29:29 8.85
22:29:45 8.86
22:30:0 8.87
22:30:17 8.86
22:30:32 8.85
22:30:49 8.85
22:31:4 8.84
22:31:20 8.78
22:31:36 8.7
22:31:52 8.64
22:32:8 8.6
22:32:24 8.57
22:32:40 8.53
22:32:56 8.49
22:33:11 8.45
22:33:28 8.43
22:33:43 8.46
22:33:59 8.45
22:34:15 8.44
22:34:31 8.42
22:34:47 8.42
22:35:3 8.43
22:35:19 8.44
22:35:35 8.45
22:35:50 8.47
22:36:7 8.54
22:36:22 8.66
22:36:38 8.73
22:36:54 8.74
22:37:10 8.74
22:37:26 8.75
22:37:42 8.75
22:37:58 8.75
22:38:14 8.72
22:38:29 8.71
22:38:46 8.68
22:39:1 8.68
22:39:18 8.66
22:39:33 8.65
22:39:49 8.63
22:40:5 8.66
22:40:21 8.65
22:40:37 8.63
22:40:53 8.62
22:41:8 8.65
22:41:25 8.67
22:41:40 8.68
22:41:57 8.74
22:42:12 8.81
22:42:28 8.84
22:42:44 8.85
22:43:0 8.85
22:43:16 8.9
22:43:32 8.92
22:43:48 8.9
22:44:4 8.89
22:44:19 8.86
22:44:36 8.81
22:44:51 8.79
22:45:7 8.83
22:45:23 8.88
22:45:39 8.94
22:45:55 8.94
22:46:11 8.91
22:46:27 8.9
22:46:43 8.87
22:46:58 8.86
22:47:15 8.84
22:47:30 8.86
22:47:47 8.87
22:48:2 8.84
22:48:18 8.84
22:48:34 8.87
22:48:50 8.86
22:49:6 8.85
22:49:22 8.86
22:49:37 8.86
22:49:54 8.87
22:50:9 8.9
22:50:26 8.88
22:50:41 8.89
22:50:57 8.89
22:51:13 8.89
22:51:29 8.9
22:51:45 8.89
22:52:1 8.87
22:52:16 8.86
22:52:33 8.85
22:52:48 8.85
22:53:5 8.85
22:53:20 8.87
22:53:36 8.87
22:53:52 8.89
22:54:8 8.87
22:54:24 8.85
22:54:40 8.84
22:54:56 8.82
22:55:12 8.83
22:55:27 8.83
22:55:44 8.81
22:55:59 8.79
22:56:15 8.8
22:56:31 8.88
22:56:47 8.99
22:57:3 9.01
22:57:19 9.02
22:57:35 9.05
22:57:51 9.05
22:58:6 9.01
22:58:23 8.97
22:58:38 9.03
22:58:55 9.05
22:59:10 9.08
22:59:26 9.19
22:59:42 9.21
22:59:58 9.18
23:0:14 9.17
23:0:30 9.14
23:0:45 9.1
23:1:2 9.04
23:1:17 8.95
23:1:34 8.86
23:1:49 8.76
23:2:5 8.68
23:2:21 8.58
23:2:37 8.55
