15:1:52 14.34
15:2:8 14.34
15:2:24 14.34
15:2:40 14.34
15:2:56 14.34
15:3:12 14.34
15:3:28 14.34
15:3:43 14.34
15:4:0 14.34
15:4:15 14.34
15:4:31 14.34
15:4:47 14.34
15:5:3 14.34
15:5:19 14.34
15:5:35 14.34
15:5:51 14.34
15:6:7 14.34
15:6:22 14.34
15:6:39 14.34
15:6:54 14.34
15:7:11 14.34
15:7:26 14.34
15:7:42 14.34
15:7:58 14.34
15:8:14 14.34
15:8:30 14.34
15:8:46 14.35
15:9:1 14.35
15:9:18 14.34
15:9:33 14.35
15:9:50 14.35
15:10:5 14.35
15:10:21 14.35
15:10:37 14.35
15:10:53 14.35
15:11:9 14.35
15:11:25 14.35
15:11:40 14.35
15:11:57 14.35
15:12:12 14.35
15:12:29 14.35
15:12:44 14.35
15:13:0 14.35
15:13:16 14.35
15:13:32 14.35
15:13:48 14.35
15:14:4 14.35
15:14:20 14.34
15:14:36 14.34
15:14:51 14.34
15:15:8 14.34
15:15:23 14.34
15:15:39 14.34
15:15:55 14.34
15:16:11 14.34
15:16:27 14.34
15:16:43 14.34
15:16:59 14.34
15:17:15 14.34
15:17:30 14.35
15:17:47 14.34
15:18:2 14.34
15:18:19 14.34
15:18:34 14.34
15:18:50 14.34
15:19:6 14.35
15:19:22 14.35
15:19:38 14.35
15:19:54 14.35
15:20:9 14.35
15:20:26 14.35
15:20:41 14.35
15:20:58 14.35
15:21:13 14.35
15:21:29 14.35
15:21:45 14.35
15:22:1 14.35
15:22:17 14.35
15:22:33 14.35
15:22:48 14.35
15:23:5 14.36
15:23:20 14.35
15:23:37 14.36
15:23:52 14.36
15:24:8 14.36
15:24:24 14.36
15:24:41 14.36
15:24:56 14.36
15:25:12 14.36
15:25:28 14.36
15:25:44 14.36
15:25:59 14.36
15:26:16 14.36
15:26:31 14.36
15:26:47 14.35
15:27:3 14.35
15:27:19 14.34
15:27:35 14.34
15:27:51 14.34
15:28:7 14.34
15:28:23 14.34
15:28:38 14.34
15:28:55 14.34
15:29:10 14.34
15:29:26 14.34
15:29:42 14.34
15:29:58 14.34
15:30:14 14.34
15:30:30 14.35
15:30:46 14.35
15:31:2 14.35
15:31:17 14.35
15:31:34 14.35
15:31:49 14.35
15:32:6 14.35
15:32:21 14.35
15:32:37 14.35
15:32:53 14.35
15:33:9 14.35
15:33:25 14.35
15:33:41 14.35
15:33:56 14.35
15:34:13 14.35
15:34:28 14.35
15:34:45 14.35
15:35:0 14.35
15:35:16 14.34
15:35:32 14.35
15:35:48 14.35
15:36:4 14.35
15:36:20 14.35
15:36:35 14.35
15:36:52 14.35
15:37:7 14.35
15:37:24 14.34
15:37:39 14.35
15:37:55 14.34
15:38:11 14.35
15:38:27 14.35
15:38:43 14.35
15:38:59 14.35
15:39:15 14.35
15:39:31 14.35
15:39:46 14.35
15:40:3 14.35
15:40:18 14.35
15:40:34 14.35
15:40:50 14.34
15:41:6 14.35
15:41:22 14.35
15:41:38 14.34
15:41:54 14.34
15:42:10 14.34
15:42:25 14.35
15:42:42 14.35
15:42:57 14.35
15:43:13 14.35
15:43:29 14.35
15:43:45 14.35
15:44:1 14.35
15:44:17 14.35
15:44:33 14.35
15:44:49 14.35
15:45:4 14.35
15:45:21 14.35
15:45:36 14.35
15:45:53 14.35
15:46:8 14.35
15:46:24 14.35
15:46:40 14.35
15:46:56 14.35
15:47:12 14.35
15:47:28 14.35
15:47:43 14.36
15:48:0 14.36
15:48:15 14.36
15:48:32 14.36
15:48:47 14.36
15:49:3 14.36
15:49:19 14.36
15:49:35 14.36
15:49:51 14.36
15:50:7 14.36
15:50:22 14.36
15:50:39 14.36
15:50:54 14.36
15:51:11 14.36
15:51:26 14.36
15:51:42 14.36
15:51:58 14.36
15:52:14 14.36
15:52:30 14.36
15:52:46 14.36
15:53:2 14.37
15:53:18 14.37
15:53:33 14.36
15:53:50 14.36
15:54:5 14.36
15:54:21 14.36
15:54:37 14.36
15:54:53 14.36
15:55:9 14.36
15:55:25 14.36
15:55:41 14.36
15:55:57 14.36
15:56:12 14.36
15:56:29 14.36
15:56:44 14.36
15:57:0 14.36
15:57:16 14.36
15:57:32 14.36
15:57:48 14.36
15:58:4 14.36
15:58:20 14.36
15:58:36 14.36
15:58:51 14.36
15:59:8 14.36
15:59:23 14.36
15:59:40 14.36
15:59:55 14.36
16:0:11 14.36
16:0:27 14.36
16:0:43 14.36
16:0:59 14.36
16:1:15 14.36
16:1:30 14.36
16:1:47 14.36
16:2:2 14.36
16:2:19 14.36
16:2:34 14.36
16:2:50 14.36
16:3:6 14.36
16:3:22 14.36
16:3:38 14.36
16:3:54 14.36
16:4:10 14.36
16:4:26 14.36
16:4:41 14.36
16:4:58 14.36
16:5:13 14.36
16:5:29 14.36
16:5:45 14.36
16:6:1 14.37
16:6:17 14.37
16:6:33 14.37
16:6:49 14.37
16:7:5 14.37
16:7:20 14.37
16:7:37 14.37
16:7:52 14.37
16:8:8 14.37
16:8:24 14.37
16:8:40 14.37
16:8:56 14.38
16:9:12 14.38
16:9:28 14.38
16:9:44 14.38
16:9:59 14.39
16:10:16 14.39
16:10:31 14.39
16:10:48 14.38
16:11:3 14.38
16:11:19 14.38
16:11:35 14.38
16:11:51 14.38
16:12:7 14.38
16:12:23 14.38
16:12:38 14.38
16:12:55 14.38
16:13:10 14.37
16:13:27 14.37
16:13:42 14.37
16:13:58 14.37
16:14:14 14.37
16:14:30 14.37
16:14:46 14.37
16:15:2 14.37
16:15:17 14.37
16:15:34 14.37
16:15:49 14.37
16:16:6 14.37
16:16:21 14.37
16:16:37 14.37
16:16:53 14.37
16:17:9 14.37
16:17:25 14.37
16:17:41 14.37
16:17:57 14.37
16:18:13 14.37
16:18:28 14.37
16:18:45 14.37
16:19:0 14.37
16:19:16 14.37
16:19:32 14.37
16:19:48 14.37
16:20:4 14.37
16:20:20 14.37
16:20:36 14.37
16:20:52 14.37
16:21:7 14.37
16:21:24 14.37
16:21:39 14.37
16:21:55 14.37
16:22:11 14.37
16:22:27 14.37
16:22:43 14.37
16:22:59 14.37
16:23:15 14.38
16:23:31 14.37
16:23:46 14.38
16:24:3 14.38
16:24:18 14.38
16:24:35 14.38
16:24:50 14.38
16:25:6 14.38
16:25:22 14.38
16:25:38 14.38
16:25:54 14.38
16:26:10 14.38
16:26:25 14.38
16:26:42 14.38
16:26:57 14.38
16:27:14 14.38
16:27:29 14.38
16:27:45 14.38
16:28:1 14.38
16:28:17 14.38
16:28:33 14.38
16:28:49 14.38
16:29:5 14.38
16:29:21 14.38
16:29:36 14.38
16:29:53 14.38
16:30:8 14.38
16:30:24 14.38
16:30:40 14.38
16:30:56 14.38
16:31:12 14.38
16:31:28 14.38
16:31:44 14.38
16:32:0 14.38
16:32:15 14.38
16:32:32 14.38
16:32:47 14.38
16:33:3 14.38
16:33:19 14.38
16:33:35 14.38
16:33:51 14.38
16:34:7 14.38
16:34:23 14.38
16:34:39 14.38
16:34:54 14.38
16:35:11 14.39
16:35:26 14.39
16:35:43 14.39
16:35:58 14.39
16:36:14 14.39
16:36:30 14.39
16:36:46 14.39
16:37:2 14.39
16:37:18 14.39
16:37:33 14.39
16:37:50 14.39
16:38:5 14.39
16:38:22 14.39
16:38:37 14.4
16:38:53 14.4
16:39:9 14.4
16:39:25 14.4
16:39:41 14.4
16:39:57 14.4
16:40:13 14.4
16:40:29 14.4
16:40:44 14.4
16:41:1 14.4
16:41:16 14.4
16:41:32 14.4
16:41:48 14.4
16:42:4 14.4
16:42:20 14.4
16:42:36 14.4
16:42:52 14.4
16:43:8 14.4
16:43:23 14.4
16:43:40 14.4
16:43:55 14.4
16:44:11 14.4
16:44:27 14.4
16:44:43 14.4
16:44:59 14.4
16:45:15 14.4
16:45:31 14.4
16:45:47 14.4
16:46:2 14.4
16:46:19 14.4
16:46:34 14.4
16:46:51 14.4
16:47:6 14.4
16:47:22 14.41
16:47:38 14.41
16:47:54 14.41
16:48:10 14.41
16:48:26 14.41
16:48:41 14.41
16:48:58 14.41
16:49:13 14.41
16:49:30 14.41
16:49:45 14.41
16:50:1 14.41
16:50:17 14.41
16:50:33 14.41
16:50:49 14.41
16:51:5 14.41
16:51:21 14.41
16:51:37 14.41
16:51:52 14.41
16:52:9 14.41
16:52:24 14.41
16:52:40 14.41
16:52:56 14.41
16:53:12 14.41
16:53:28 14.41
16:53:44 14.41
16:54:0 14.41
16:54:16 14.41
16:54:31 14.41
16:54:48 14.41
16:55:3 14.41
16:55:20 14.41
16:55:35 14.41
16:55:51 14.41
16:56:7 14.41
16:56:23 14.41
16:56:39 14.41
16:56:55 14.41
16:57:10 14.41
16:57:27 14.41
16:57:42 14.41
16:57:59 14.41
16:58:14 14.41
16:58:30 14.41
16:58:46 14.41
16:59:2 14.41
16:59:18 14.41
16:59:34 14.41
16:59:50 14.41
17:0:6 14.41
17:0:21 14.41
17:0:38 14.41
17:0:53 14.41
17:1:9 14.41
17:1:25 14.41
17:1:41 14.41
17:1:57 14.41
17:2:13 14.41
17:2:29 14.41
17:2:45 14.41
17:3:0 14.41
17:3:17 14.41
17:3:32 14.41
17:3:49 14.41
17:4:4 14.41
17:4:20 14.41
17:4:36 14.41
17:4:52 14.41
17:5:8 14.41
17:5:24 14.41
17:5:39 14.41
17:5:56 14.41
17:6:11 14.41
17:6:28 14.41
17:6:43 14.41
17:6:59 14.41
17:7:15 14.41
17:7:31 14.41
17:7:47 14.41
17:8:3 14.41
17:8:19 14.41
17:8:35 14.41
17:8:50 14.41
17:9:7 14.41
17:9:22 14.41
17:9:38 14.41
17:9:54 14.41
17:10:10 14.41
17:10:26 14.41
17:10:42 14.41
17:10:58 14.41
17:11:14 14.41
17:11:29 14.41
17:11:46 14.41
17:12:1 14.41
17:12:18 14.41
17:12:33 14.41
17:12:49 14.41
17:13:5 14.41
17:13:21 14.41
17:13:37 14.41
17:13:53 14.41
17:14:8 14.41
17:14:25 14.41
17:14:40 14.41
17:14:57 14.41
17:15:12 14.41
17:15:28 14.41
17:15:44 14.41
17:16:0 14.41
17:16:16 14.41
17:16:32 14.41
17:16:48 14.41
17:17:4 14.41
17:17:19 14.41
17:17:36 14.41
17:17:51 14.41
17:18:7 14.42
17:18:23 14.42
17:18:39 14.42
17:18:55 14.42
17:19:11 14.42
17:19:27 14.42
17:19:43 14.42
17:19:58 14.42
17:20:15 14.42
17:20:30 14.42
17:20:47 14.42
17:21:2 14.42
17:21:18 14.42
17:21:34 14.42
17:21:50 14.42
17:22:6 14.42
17:22:22 14.42
17:22:37 14.42
17:22:54 14.42
17:23:9 14.42
17:23:26 14.42
17:23:41 14.42
17:23:57 14.42
17:24:13 14.42
17:24:29 14.42
17:24:45 14.42
17:25:1 14.42
17:25:17 14.42
17:25:33 14.42
17:25:48 14.42
17:26:5 14.42
17:26:20 14.42
17:26:36 14.42
17:26:52 14.42
17:27:8 14.42
17:27:24 14.42
17:27:40 14.42
17:27:56 14.42
17:28:12 14.42
17:28:27 14.42
17:28:44 14.42
17:28:59 14.42
17:29:16 14.42
17:29:31 14.42
17:29:47 14.42
17:30:3 14.42
17:30:19 14.42
17:30:35 14.42
17:30:51 14.42
17:31:6 14.42
17:31:23 14.42
17:31:38 14.42
17:31:55 14.42
17:32:10 14.42
17:32:26 14.42
17:32:42 14.42
17:32:59 14.42
17:33:14 14.42
17:33:30 14.42
17:33:46 14.42
17:34:2 14.42
17:34:17 14.42
17:34:34 14.42
17:34:49 14.42
17:35:5 14.42
17:35:24 14.42
17:35:37 14.42
17:35:53 14.42
21:45:2 14.37
21:45:18 14.37
21:45:34 14.37
21:45:50 14.37
21:46:5 14.37
21:46:22 14.37
21:46:37 14.37
21:46:54 14.37
21:47:9 14.37
21:47:25 14.37
21:47:41 14.37
21:47:57 14.37
21:48:13 14.37
21:48:29 14.37
21:48:45 14.37
21:49:1 14.37
21:49:16 14.37
21:49:33 14.37
21:49:48 14.37
21:50:4 14.37
21:50:20 14.37
21:50:36 14.37
21:50:52 14.37
21:51:8 14.37
21:51:24 14.37
21:51:40 14.37
21:51:55 14.37
21:52:12 14.37
21:52:27 14.37
21:52:43 14.37
21:52:59 14.37
21:53:15 14.37
21:53:31 14.37
21:53:47 14.37
21:54:3 14.37
21:54:19 14.37
21:54:34 14.37
21:54:51 14.37
21:55:6 14.37
21:55:23 14.37
21:55:38 14.37
21:55:54 14.37
21:56:10 14.37
21:56:26 14.37
21:56:42 14.37
21:56:58 14.37
21:57:13 14.37
21:57:30 14.37
21:57:45 14.37
21:58:2 14.37
21:58:17 14.37
21:58:33 14.37
21:58:49 14.37
21:59:5 14.37
21:59:21 14.37
21:59:37 14.37
21:59:53 14.37
22:0:9 14.37
22:0:24 14.37
22:0:41 14.37
22:0:56 14.37
22:1:12 14.37
22:1:28 14.37
22:1:44 14.37
22:2:0 14.37
22:2:16 14.37
22:2:32 14.37
22:2:48 14.37
22:3:3 14.37
22:3:20 14.37
22:3:35 14.37
22:3:51 14.37
22:4:7 14.37
22:4:23 14.37
22:4:39 14.37
22:4:55 14.37
22:5:11 14.37
22:5:27 14.37
22:5:42 14.37
22:5:59 14.37
22:6:14 14.37
22:6:31 14.37
22:6:46 14.37
22:7:2 14.37
22:7:18 14.37
22:7:34 14.37
22:7:50 14.37
22:8:6 14.37
22:8:21 14.37
22:8:38 14.37
22:8:53 14.37
22:9:10 14.37
22:9:25 14.37
22:9:41 14.37
22:9:57 14.37
22:10:13 14.37
22:10:29 14.37
22:10:45 14.37
22:11:1 14.37
22:11:17 14.37
22:11:32 14.37
22:11:49 14.37
22:12:4 14.37
22:12:20 14.37
22:12:36 14.37
22:12:52 14.37
22:13:8 14.37
22:13:24 14.37
22:13:40 14.37
22:13:56 14.37
22:14:11 14.37
22:14:28 14.37
22:14:43 14.37
22:14:59 14.38
22:15:15 14.38
22:15:31 14.38
22:15:47 14.38
22:16:3 14.38
22:16:19 14.38
22:16:35 14.38
22:16:50 14.38
22:17:7 14.38
22:17:22 14.38
22:18:10 14.38
22:18:26 14.38
22:18:42 14.38
22:18:58 14.38
22:19:14 14.38
22:19:29 14.38
22:24:48 14.38
22:25:19 14.38
22:25:36 14.38
22:25:51 14.38
22:26:7 14.38
22:26:23 14.38
22:26:39 14.38
22:26:55 14.38
22:27:11 14.38
22:27:27 14.38
22:27:43 14.38
22:27:58 14.38
22:28:15 14.38
22:28:30 14.38
22:28:47 14.38
22:29:2 14.38
22:29:18 14.38
22:29:34 14.38
22:29:50 14.38
22:30:6 14.38
22:30:22 14.38
22:30:37 14.38
22:30:54 14.38
22:31:9 14.38
22:31:26 14.38
22:31:41 14.38
22:31:57 14.38
22:32:13 14.38
22:32:29 14.38
22:32:45 14.38
22:33:1 14.38
22:33:17 14.38
22:33:33 14.38
22:33:48 14.38
22:34:5 14.38
22:34:20 14.38
22:34:36 14.38
22:34:52 14.38
22:35:8 14.38
22:35:24 14.38
22:35:40 14.38
22:35:56 14.38
22:36:12 14.38
22:36:27 14.38
22:36:44 14.38
22:36:59 14.38
22:37:15 14.38
22:37:31 14.38
22:37:47 14.38
22:38:3 14.38
22:38:19 14.38
22:38:35 14.38
22:38:51 14.38
22:39:6 14.38
22:39:23 14.38
22:39:38 14.38
22:39:55 14.38
22:40:10 14.38
22:40:26 14.38
22:40:42 14.38
22:40:58 14.38
22:41:14 14.38
22:41:30 14.38
22:41:45 14.38
22:42:2 14.38
22:42:17 14.38
22:42:34 14.38
22:42:49 14.38
22:43:5 14.38
22:43:21 14.38
22:43:37 14.38
22:43:53 14.38
22:44:9 14.39
22:44:25 14.39
22:44:41 14.39
22:44:56 14.39
22:45:13 14.39
22:45:28 14.39
22:45:44 14.39
22:46:0 14.39
22:46:16 14.39
22:46:32 14.39
22:46:48 14.39
22:47:4 14.39
22:47:20 14.39
22:47:35 14.39
22:47:52 14.39
22:48:7 14.39
22:48:23 14.39
22:48:39 14.39
22:48:55 14.39
22:49:11 14.39
22:49:27 14.39
22:49:43 14.39
22:49:59 14.39
22:50:14 14.39
22:50:31 14.39
22:50:46 14.39
22:51:3 14.39
22:51:18 14.39
22:51:34 14.39
22:51:50 14.39
22:52:6 14.39
22:52:22 14.39
22:52:38 14.39
22:52:53 14.39
22:53:10 14.39
22:53:25 14.39
22:53:42 14.39
22:53:57 14.39
22:54:13 14.39
22:54:29 14.39
22:54:45 14.39
22:55:1 14.39
22:55:17 14.39
22:55:33 14.39
22:55:49 14.39
22:56:4 14.39
22:56:21 14.39
22:56:36 14.39
22:56:52 14.39
22:57:8 14.39
22:57:24 14.38
22:57:40 14.39
22:57:56 14.39
22:58:12 14.39
22:58:28 14.38
22:58:43 14.38
22:59:0 14.38
22:59:15 14.38
22:59:31 14.38
22:59:47 14.38
23:0:3 14.38
23:0:19 14.38
23:0:35 14.38
23:0:51 14.38
23:1:7 14.38
23:1:22 14.38
23:1:39 14.38
23:1:54 14.38
23:2:11 14.38
23:2:26 14.38
23:2:42 14.38
