12:14:12 10.74
12:14:27 10.75
12:14:43 10.75
12:14:59 10.76
12:15:15 10.77
12:15:31 10.78
12:15:47 10.78
12:16:3 10.78
12:16:19 10.78
12:16:34 10.77
12:16:51 10.78
12:17:6 10.77
12:17:23 10.76
12:17:38 10.75
12:17:54 10.75
12:18:10 10.75
12:18:26 10.75
12:18:42 10.74
12:18:58 10.74
12:19:13 10.75
12:19:30 10.75
12:19:45 10.75
12:20:2 10.76
12:20:17 10.76
12:20:33 10.76
12:20:49 10.77
12:21:5 10.77
12:21:21 10.78
12:21:37 10.78
12:21:52 10.78
12:22:9 10.78
12:22:24 10.78
12:22:41 10.79
12:22:56 10.79
12:23:12 10.8
12:23:28 10.8
12:23:44 10.81
12:24:0 10.82
12:24:16 10.82
12:24:32 10.83
12:24:48 10.84
12:25:3 10.85
12:25:20 10.86
12:25:35 10.87
12:25:51 10.88
12:26:7 10.89
12:26:23 10.89
12:26:39 10.9
12:26:55 10.91
12:27:11 10.91
12:27:27 10.9
12:27:42 10.91
12:27:59 10.91
12:28:14 10.92
12:28:30 10.91
12:28:46 10.91
12:29:2 10.9
12:29:21 10.91
12:29:40 10.92
12:29:51 10.91
12:30:6 10.92
12:30:21 10.93
12:30:38 10.95
12:30:53 10.95
12:31:10 10.95
12:31:25 10.95
12:31:41 10.95
12:31:57 10.94
12:32:13 10.93
12:32:29 10.9
12:32:45 10.88
12:33:0 10.87
12:33:17 10.87
12:33:32 10.89
12:33:49 10.9
12:34:4 10.89
12:34:20 10.89
12:34:36 10.9
12:34:52 10.89
12:35:8 10.88
12:35:24 10.87
12:35:39 10.87
12:35:56 10.85
12:36:11 10.85
12:36:28 10.85
12:36:43 10.81
12:36:59 10.78
12:37:15 10.79
12:37:31 10.78
12:37:47 10.77
12:38:3 10.76
12:38:18 10.75
12:38:35 10.74
12:38:50 10.73
12:39:7 10.72
12:39:22 10.72
12:39:38 10.72
12:39:54 10.71
12:40:10 10.7
12:40:26 10.7
12:40:42 10.7
12:40:58 10.71
12:41:14 10.72
12:41:29 10.71
12:41:46 10.69
12:42:1 10.7
12:42:17 10.72
12:42:33 10.74
12:42:49 10.73
12:43:5 10.71
12:43:21 10.69
12:43:37 10.68
12:43:53 10.68
12:44:8 10.68
12:44:25 10.67
12:44:40 10.68
12:44:56 10.68
12:45:12 10.69
12:45:28 10.71
12:45:44 10.73
12:46:0 10.75
12:46:16 10.77
12:46:32 10.81
12:46:47 10.84
12:47:4 10.87
12:47:19 10.9
12:47:36 10.9
12:47:51 10.9
12:48:7 10.88
12:48:23 10.87
12:48:39 10.87
12:48:55 10.89
12:49:11 10.88
12:49:26 10.87
12:49:43 10.86
12:49:58 10.87
12:50:15 10.88
12:50:30 10.89
12:50:46 10.91
12:51:2 10.92
12:51:18 10.93
12:51:34 10.93
12:51:50 10.93
12:52:5 10.93
12:52:22 10.93
12:52:37 10.94
12:52:54 10.95
12:53:9 10.95
12:53:25 10.94
12:53:41 10.93
12:53:57 10.91
12:54:13 10.88
12:54:29 10.87
12:54:45 10.86
12:55:1 10.84
12:55:16 10.83
12:55:33 10.85
12:55:48 10.83
12:56:4 10.83
12:56:20 10.84
12:56:36 10.86
12:56:52 10.86
12:57:8 10.87
12:57:24 10.89
12:57:40 10.91
12:57:55 10.93
12:58:12 10.96
12:58:27 10.98
12:58:43 11.0
12:58:59 11.02
12:59:15 11.02
12:59:31 11.04
12:59:47 11.06
13:0:3 11.07
13:0:19 11.08
13:0:34 11.1
13:0:51 11.11
13:1:6 11.13
13:1:22 11.11
13:1:38 11.09
13:1:54 11.1
13:2:10 11.12
13:2:26 11.13
13:2:42 11.14
13:2:58 11.17
13:3:13 11.18
13:3:30 11.18
13:3:45 11.16
13:4:2 11.16
13:4:17 11.16
13:4:33 11.16
13:4:49 11.17
13:5:5 11.18
13:5:21 11.2
13:5:37 11.21
13:5:53 11.22
13:6:9 11.23
13:6:25 11.23
13:6:41 11.23
13:6:57 11.22
13:7:17 11.21
13:7:32 11.19
13:7:44 11.18
13:8:0 11.18
13:8:22 11.18
13:8:33 11.19
13:8:49 11.18
13:9:3 11.18
13:9:26 11.17
13:9:35 11.16
13:9:54 11.16
13:10:7 11.15
13:10:24 11.14
13:10:39 11.14
13:10:55 11.14
13:11:14 11.14
13:11:27 11.09
13:11:44 11.03
13:12:0 11.01
13:12:14 11.0
13:12:37 10.98
13:12:46 10.95
13:13:3 10.95
13:13:39 10.94
13:13:40 10.94
13:13:50 10.93
13:14:6 10.92
13:14:21 10.9
13:14:38 10.88
13:15:6 10.87
13:15:11 10.87
13:15:25 10.87
13:15:41 10.87
13:15:57 10.88
13:16:13 10.89
13:16:29 10.9
13:16:45 10.9
13:17:0 10.9
13:17:17 10.91
13:17:32 10.93
13:17:48 10.94
13:18:4 10.95
13:18:20 10.96
13:18:37 10.94
13:18:58 10.93
13:19:13 10.9
13:19:25 10.9
13:19:47 10.9
13:20:19 10.89
13:20:31 10.89
13:20:31 10.9
13:20:44 10.89
13:20:59 10.9
13:21:15 10.91
13:21:31 10.93
13:21:47 10.95
13:22:3 10.94
13:22:18 10.95
13:22:35 10.95
13:22:50 10.95
13:23:7 10.97
13:23:22 10.98
13:23:38 11.0
13:23:54 11.02
13:24:13 11.03
13:24:27 11.02
13:24:42 11.04
13:24:58 11.06
13:25:14 11.09
13:25:29 11.13
13:25:46 11.17
13:26:3 11.21
13:26:20 11.23
13:26:45 11.26
13:26:50 11.28
13:27:9 11.3
13:27:22 11.34
13:27:37 11.36
13:27:53 11.37
13:28:11 11.37
13:28:36 11.38
13:32:23 11.35
13:32:40 11.33
13:32:55 11.32
13:33:13 11.31
