10:57:13 18.38
10:57:28 18.61
10:57:45 19.05
10:58:0 19.24
10:58:16 19.29
10:58:32 19.29
10:58:48 18.98
10:59:4 19.0
10:59:27 19.01
10:59:36 18.99
10:59:58 18.75
11:0:7 18.28
11:0:24 17.95
11:0:40 17.89
11:0:56 18.0
11:1:11 17.91
11:1:27 17.72
11:1:43 17.49
11:2:0 17.85
11:2:16 17.94
11:2:31 18.1
11:2:46 18.28
11:3:3 18.42
11:3:18 18.79
11:3:35 18.69
11:3:50 18.34
11:4:7 18.36
11:4:22 18.59
11:4:39 18.21
11:4:57 17.87
11:5:11 17.92
11:5:26 18.21
11:5:42 18.3
11:5:58 18.49
11:6:14 18.83
11:6:30 18.85
11:6:45 18.7
11:7:2 18.44
11:7:18 18.63
11:7:34 18.99
11:7:49 19.09
11:8:5 18.96
11:8:22 18.96
11:8:36 18.92
11:8:54 19.06
11:9:8 19.2
11:9:25 19.32
11:9:40 19.41
11:9:56 19.8
11:10:12 20.17
11:10:28 20.07
11:10:44 20.1
11:11:0 19.92
11:11:15 19.32
11:11:32 18.93
11:11:47 19.0
11:17:54 19.79
11:18:9 19.39
11:18:25 19.12
11:18:41 18.78
11:19:0 18.56
11:19:14 18.48
11:19:29 18.59
11:19:44 18.66
11:20:1 18.57
11:20:16 18.44
11:20:33 18.25
11:20:48 18.15
11:21:4 18.11
11:21:20 18.09
11:21:36 18.27
11:21:52 18.44
11:22:8 18.42
11:22:23 18.2
11:22:41 18.09
11:22:55 18.17
11:23:12 18.25
11:23:27 18.42
11:23:43 18.95
11:24:1 19.37
11:24:15 19.6
11:24:34 19.72
11:24:50 19.54
11:25:3 19.17
11:25:19 18.83
11:25:34 18.71
11:25:51 18.97
11:26:23 19.84
11:26:38 20.21
11:27:10 20.05
11:27:26 20.19
11:27:42 20.14
11:28:45 20.5
11:29:2 20.73
11:29:17 20.83
11:29:33 20.81
11:29:49 20.51
11:30:5 20.32
11:30:21 20.55
11:30:37 20.34
11:30:52 19.69
11:31:10 19.15
11:31:24 19.14
11:31:41 19.01
11:31:56 18.84
11:32:12 19.02
11:32:28 19.12
11:32:44 19.07
11:33:0 19.35
11:33:16 19.53
11:33:32 19.41
11:33:48 19.6
11:34:3 19.95
11:34:20 20.13
11:34:36 19.93
11:34:52 19.64
11:35:10 19.66
11:35:39 19.65
11:35:55 19.5
11:36:12 19.49
11:36:27 19.31
11:36:42 19.39
11:36:59 19.17
11:37:14 19.29
11:37:46 19.18
11:38:3 19.54
11:38:18 19.59
11:38:34 19.37
11:38:50 19.53
11:39:6 19.75
11:39:23 19.81
11:39:38 19.64
11:39:53 19.43
11:40:10 19.05
11:40:25 18.67
11:40:41 18.5
11:40:57 18.46
11:41:13 18.69
11:41:33 19.07
11:41:45 19.1
11:42:1 19.12
11:42:17 19.0
11:42:17 19.0
11:42:32 18.74
11:42:49 18.46
11:43:4 18.51
11:43:21 18.53
11:43:22 18.53
11:43:36 18.63
11:43:36 18.63
11:43:52 18.74
11:44:8 18.81
11:44:8 18.81
11:44:24 18.69
11:44:24 18.69
11:44:40 18.59
11:44:40 18.59
11:44:56 18.82
11:44:56 18.82
11:45:11 19.03
11:45:11 19.03
11:45:28 18.95
11:45:28 18.95
11:45:46 18.81
11:45:46 18.81
11:46:12 19.01
11:46:12 19.01
11:46:16 18.87
11:46:16 18.87
11:46:31 18.91
11:46:47 18.78
11:47:3 18.47
11:47:19 18.47
11:47:35 18.8
11:47:51 18.8
11:48:7 18.68
11:48:7 18.68
11:48:23 18.64
11:48:40 18.81
11:48:40 18.81
11:48:54 18.67
11:49:10 18.47
11:49:26 18.49
11:49:26 18.49
11:49:42 18.59
11:49:42 18.59
11:49:58 18.8
11:49:58 18.8
11:50:14 18.75
11:50:14 18.75
11:50:30 18.7
11:50:30 18.7
11:50:46 19.06
11:50:46 19.06
11:51:2 19.51
11:51:2 19.51
11:51:18 19.72
11:51:18 19.72
11:51:34 19.99
11:51:34 19.99
11:51:50 20.04
11:51:50 20.04
11:52:5 20.08
11:52:5 20.08
11:52:21 20.29
11:52:22 20.29
11:52:37 20.28
11:52:37 20.28
11:52:53 20.16
11:52:53 20.16
11:53:9 20.01
11:53:9 20.01
11:53:25 19.93
11:53:25 19.93
11:53:40 20.09
11:53:40 20.09
11:53:58 20.0
11:54:13 19.69
11:54:29 19.64
11:54:44 19.76
11:55:16 19.87
11:55:32 20.02
11:55:48 20.09
11:56:4 19.9
11:56:20 19.65
11:56:36 19.66
11:56:51 19.64
11:57:8 19.6
11:57:23 19.73
11:57:40 19.64
11:57:55 19.77
11:58:12 20.01
11:58:27 20.0
11:58:44 20.02
11:59:0 20.13
11:59:15 20.46
11:59:30 20.41
11:59:47 20.55
12:0:2 20.28
12:0:19 19.94
12:0:34 19.62
12:0:57 19.77
12:1:6 19.8
12:1:22 19.93
12:1:38 20.12
12:1:54 19.9
12:2:10 19.85
12:2:26 20.24
12:2:41 20.33
12:2:58 20.33
12:3:13 20.39
12:3:29 20.24
12:3:45 20.45
12:4:1 20.39
12:4:17 20.1
12:4:33 19.98
12:4:49 19.83
12:5:5 19.83
12:5:20 19.71
12:5:37 19.56
12:5:52 19.73
12:6:9 20.03
12:6:24 20.15
12:6:40 20.14
12:6:56 19.85
12:7:12 19.63
12:7:28 19.36
12:7:44 19.16
12:7:59 19.37
12:8:16 19.4
12:8:31 19.19
12:8:48 18.9
12:9:3 19.09
12:9:19 19.22
12:9:35 19.31
12:9:51 19.38
12:10:7 19.39
12:10:23 19.01
12:10:39 18.46
12:10:55 18.34
12:11:10 18.38
12:11:27 18.42
12:11:42 18.3
12:11:58 18.07
12:12:14 17.83
12:12:30 17.63
12:12:46 17.57
12:13:2 17.58
12:13:18 17.63
12:13:34 17.75
12:13:49 17.8
12:14:6 17.79
12:14:21 17.88
12:14:38 17.91
12:14:53 17.82
12:15:9 17.8
12:15:25 17.74
12:15:41 17.72
12:15:57 17.54
12:16:13 17.26
12:16:29 17.19
12:16:45 17.27
12:17:0 17.28
12:17:17 17.39
12:17:32 17.57
12:17:48 17.65
12:18:4 17.44
12:18:20 17.37
12:18:36 17.38
12:18:52 17.37
12:19:8 17.32
12:19:24 17.19
12:19:39 17.14
12:19:56 17.06
12:20:11 17.02
12:20:28 16.97
12:20:43 16.99
12:20:59 16.95
12:21:15 16.87
12:21:31 16.93
12:21:47 16.95
12:22:3 16.96
12:22:18 17.01
12:22:35 17.02
12:22:50 17.03
12:23:7 17.05
12:23:22 16.96
12:23:38 16.85
12:23:54 16.85
12:24:10 16.81
12:24:26 16.81
12:24:42 16.79
12:24:58 16.68
12:25:14 16.57
12:25:29 16.46
12:25:46 16.49
12:26:1 16.61
12:26:17 16.72
12:26:33 16.8
12:26:49 16.9
12:27:5 17.01
12:27:21 17.18
12:27:37 17.32
12:27:53 17.33
12:28:8 17.32
12:28:25 17.4
12:28:40 17.33
12:28:57 17.1
12:29:12 16.98
12:29:28 16.98
12:29:44 16.89
12:30:0 16.84
12:30:16 16.79
12:30:32 16.86
12:30:48 16.99
12:31:4 17.03
12:31:19 17.06
12:31:36 17.16
12:31:51 17.25
12:32:7 17.2
12:32:23 17.13
12:32:39 17.12
12:32:55 17.14
12:33:11 17.15
12:33:27 17.1
12:33:43 17.07
12:33:58 17.14
12:34:15 17.28
12:34:30 17.39
12:34:47 17.46
12:35:2 17.48
12:35:18 17.42
12:35:34 17.45
12:35:50 17.34
12:36:6 17.3
12:36:22 17.32
12:36:38 17.38
12:36:54 17.25
12:37:9 17.25
12:37:26 17.24
12:37:41 17.17
12:37:57 17.11
12:38:13 17.05
12:38:29 16.87
12:38:45 16.69
12:39:1 16.72
12:39:17 16.83
12:39:33 16.87
12:39:49 16.87
12:40:5 16.72
12:40:20 16.61
12:40:37 16.62
12:40:52 16.67
12:41:9 16.65
12:41:24 16.58
12:41:40 16.49
12:41:56 16.48
12:42:12 16.56
12:42:27 16.6
12:42:44 16.55
12:42:59 16.51
12:43:16 16.61
12:43:31 16.65
12:43:47 16.69
12:44:3 16.69
12:44:19 16.63
12:44:35 16.6
12:44:51 16.66
12:45:7 16.77
12:45:23 16.8
12:45:38 16.69
12:45:55 16.7
12:46:10 16.66
12:46:27 16.64
12:46:42 16.65
12:46:58 16.67
12:47:14 16.69
12:47:30 16.75
12:47:46 16.75
12:48:2 16.71
12:48:17 16.7
12:48:34 16.78
12:48:49 16.84
12:49:6 16.88
12:49:21 16.83
12:49:37 16.8
12:49:53 16.84
12:50:9 16.87
12:50:25 16.84
12:50:41 16.77
12:50:56 16.74
12:51:13 16.78
12:51:28 16.86
12:51:45 16.99
12:52:0 17.02
12:52:16 17.0
12:52:32 16.93
12:52:48 16.82
12:53:4 16.76
12:53:20 16.7
12:53:36 16.65
12:53:52 16.64
12:54:7 16.65
12:54:24 16.73
12:54:39 16.72
12:54:55 16.66
12:55:11 16.66
12:55:27 16.8
12:55:43 16.84
12:55:59 16.89
12:56:15 16.85
12:56:31 16.7
12:56:46 16.62
12:57:3 16.62
12:57:18 16.63
12:57:35 16.7
12:57:50 16.69
12:58:6 16.7
12:58:22 16.7
12:58:38 16.72
12:58:54 16.8
12:59:10 16.93
12:59:26 16.85
12:59:42 16.72
12:59:57 16.75
13:0:14 16.75
13:0:29 16.74
13:0:45 16.76
13:1:1 16.74
13:1:17 16.8
13:1:33 16.92
13:1:49 16.98
13:2:5 16.99
13:2:21 16.87
13:2:36 16.87
13:2:53 16.7
13:3:8 16.59
13:3:25 16.58
13:3:40 16.62
13:3:56 16.54
13:4:12 16.57
13:4:28 16.63
13:4:44 16.6
13:5:0 16.65
13:5:15 16.7
13:5:32 16.7
13:5:47 16.7
13:6:4 16.72
13:6:20 16.77
13:6:35 16.84
13:6:51 16.91
13:7:7 16.89
13:7:23 16.78
13:7:39 16.7
13:7:55 16.71
13:8:11 16.73
13:8:26 16.72
13:8:43 16.73
13:8:58 16.73
13:9:14 16.74
13:9:30 16.74
13:9:46 16.66
13:10:2 16.64
13:10:18 16.61
13:10:34 16.55
13:10:50 16.57
13:11:5 16.6
13:11:22 16.66
13:11:37 16.72
13:11:54 16.75
13:12:9 16.76
13:12:26 16.74
13:12:41 16.73
13:12:57 16.73
13:13:13 16.74
13:13:29 16.73
13:13:44 16.74
13:14:1 16.68
13:14:16 16.6
13:14:33 16.55
13:14:48 16.56
13:15:4 16.6
13:15:20 16.6
13:15:36 16.64
13:15:52 16.64
13:16:8 16.65
13:16:24 16.7
13:16:40 16.74
13:16:55 16.73
13:17:12 16.8
13:17:27 16.82
13:17:44 16.86
13:17:59 16.91
13:18:15 16.98
13:18:31 16.97
13:18:47 16.88
13:19:3 16.86
13:19:19 16.84
13:19:34 16.96
13:19:51 17.05
13:20:7 17.1
13:20:23 17.04
13:20:38 16.98
13:20:55 16.95
13:21:10 16.96
13:21:26 16.86
13:21:42 16.73
13:21:58 16.65
13:22:13 16.63
13:22:30 16.68
13:22:46 16.66
13:23:2 16.59
13:23:17 16.59
13:23:34 16.67
13:23:49 16.71
13:24:6 16.76
13:24:21 16.78
13:24:37 16.78
13:24:53 16.72
13:25:9 16.65
13:25:24 16.65
13:25:41 16.66
13:25:56 16.61
13:26:13 16.64
13:26:28 16.61
13:26:44 16.64
13:27:0 16.73
13:27:16 16.86
13:27:32 16.96
13:27:48 17.01
13:28:4 17.06
13:28:20 17.12
13:28:35 17.1
13:28:52 17.07
13:29:7 17.05
13:29:23 17.2
13:29:39 17.27
13:29:55 17.32
13:30:11 17.36
13:30:27 17.42
13:30:43 17.41
13:30:59 17.36
13:31:14 17.35
13:31:31 17.44
13:31:46 17.53
13:32:3 17.58
13:32:18 17.67
13:32:34 17.79
13:32:50 17.86
13:33:6 17.87
13:33:22 17.85
13:33:38 17.86
13:33:53 17.87
13:34:10 17.94
13:34:25 18.03
13:34:42 18.1
13:34:57 18.1
13:35:13 18.09
13:35:29 18.09
13:35:45 18.12
13:36:1 18.02
13:36:17 17.86
13:36:32 17.63
13:36:49 17.42
13:37:4 17.29
13:37:21 17.28
13:37:36 17.37
13:37:52 17.48
13:38:8 17.6
13:38:24 17.58
13:38:40 17.49
13:38:56 17.39
13:39:12 17.4
13:39:28 17.44
13:39:43 17.4
13:40:0 17.49
13:40:15 17.59
13:40:32 17.69
13:40:47 17.62
13:41:3 17.39
13:41:19 17.19
13:41:35 17.11
13:41:51 17.16
13:42:7 17.22
13:42:22 17.28
13:42:39 17.26
13:42:54 17.2
13:43:11 17.09
13:43:26 16.93
13:43:42 16.82
13:43:58 16.77
13:44:14 16.77
13:44:30 16.76
13:44:46 16.84
13:45:1 16.97
13:45:18 17.18
13:45:33 17.42
13:45:50 17.64
13:46:5 17.88
13:46:21 18.03
13:46:37 18.08
13:46:53 18.18
13:47:9 18.25
13:47:25 18.29
13:47:41 18.28
13:47:57 18.05
13:48:12 17.9
13:48:29 17.91
13:48:44 18.02
13:49:0 18.23
13:49:16 18.29
13:49:32 18.27
13:49:48 18.24
13:50:4 18.25
13:50:20 18.26
13:50:36 18.17
13:50:51 18.16
13:51:8 18.22
13:51:23 18.15
13:51:40 18.02
13:51:55 17.99
13:52:11 17.81
13:52:27 17.6
13:52:43 17.38
13:52:59 17.32
13:53:15 17.34
13:53:31 17.32
13:53:47 17.28
13:54:2 17.22
13:54:19 17.25
13:54:34 17.28
13:54:51 17.22
13:55:6 17.16
13:55:22 17.12
13:55:38 17.16
13:55:54 17.14
13:56:10 17.11
13:56:26 17.14
13:56:41 17.16
13:56:58 17.14
13:57:13 17.0
13:57:30 16.9
13:57:45 16.9
13:58:1 16.98
13:58:17 17.09
13:58:33 17.16
13:58:49 17.24
13:59:5 17.37
13:59:21 17.38
13:59:37 17.25
13:59:52 17.29
14:0:9 17.37
14:0:24 17.46
14:0:40 17.51
14:0:56 17.6
14:1:12 17.71
14:1:28 17.79
14:1:44 17.74
14:2:0 17.67
14:2:16 17.57
14:2:31 17.53
14:2:48 17.41
14:3:3 17.27
14:3:19 17.1
14:3:35 17.03
14:3:51 17.01
14:4:7 17.05
14:4:23 17.15
14:4:39 17.32
14:4:55 17.43
14:5:10 17.48
14:5:27 17.58
14:5:42 17.53
14:5:59 17.41
14:6:14 17.32
14:6:30 17.29
14:6:46 17.26
14:7:3 17.26
14:7:18 17.35
14:7:34 17.53
14:7:50 17.69
14:8:6 17.9
14:8:22 18.13
14:8:38 18.28
14:8:53 18.42
14:9:9 18.56
14:9:25 18.69
14:9:41 18.63
14:9:57 18.64
14:10:13 18.65
14:10:29 18.49
14:10:45 18.06
14:11:0 17.63
14:11:17 17.35
14:11:32 17.2
14:11:48 17.1
14:12:4 17.13
14:12:20 17.21
14:12:36 17.31
14:12:52 17.39
14:13:8 17.5
14:13:24 17.68
14:13:40 17.95
14:13:56 18.11
14:14:11 18.12
14:14:28 18.05
14:14:43 18.2
14:14:59 18.3
14:15:15 18.18
14:15:31 18.11
14:15:47 18.08
14:16:3 18.07
14:16:19 18.01
14:16:35 17.97
14:16:50 18.09
14:17:7 18.08
14:17:22 18.03
14:17:38 18.02
14:17:54 18.03
14:18:10 17.97
14:18:26 17.91
14:18:42 17.83
14:18:58 17.69
14:19:14 17.57
14:19:29 17.53
14:19:46 17.56
14:20:1 17.58
14:20:18 17.58
14:20:33 17.59
14:20:49 17.54
14:21:5 17.47
14:21:21 17.4
14:21:37 17.35
14:21:53 17.34
14:22:9 17.33
14:22:25 17.34
14:22:40 17.37
14:22:57 17.34
14:23:12 17.29
14:23:29 17.28
14:23:44 17.31
14:24:0 17.32
14:24:16 17.34
14:24:32 17.47
14:24:48 17.68
14:25:4 17.89
14:25:19 17.85
14:25:36 17.83
14:25:51 17.78
14:26:8 17.9
14:26:23 18.03
14:26:39 18.08
14:26:55 18.03
14:27:11 17.97
14:27:27 18.0
14:27:43 18.0
14:27:59 18.0
14:28:15 17.92
14:28:30 17.9
14:28:47 17.9
14:29:2 18.04
14:29:18 18.27
14:29:34 18.26
14:29:50 18.28
14:30:6 18.44
14:30:22 18.54
14:30:38 18.61
14:30:54 18.56
14:31:9 18.48
14:31:26 18.55
14:31:41 18.68
14:31:57 18.83
14:32:13 19.0
14:32:29 19.11
14:32:45 19.02
14:33:1 19.03
14:33:17 19.2
14:33:33 19.39
14:33:48 19.49
14:34:5 19.46
14:34:20 19.3
14:34:37 19.26
14:34:52 19.2
14:35:8 19.25
14:35:24 19.23
14:35:40 19.22
14:35:56 19.06
14:36:12 18.89
14:36:28 18.73
14:36:44 18.46
14:36:59 18.23
14:37:16 18.1
14:37:31 18.2
14:37:47 18.54
14:38:3 19.01
14:38:19 19.54
14:38:35 20.08
14:38:51 20.07
14:39:7 20.09
14:39:23 20.25
14:39:38 20.08
14:39:55 19.66
14:40:10 19.29
14:40:27 19.3
14:40:42 19.3
14:40:58 19.02
14:41:14 18.9
14:41:30 19.02
14:41:46 19.48
14:42:2 19.69
14:42:18 19.81
14:42:34 19.85
14:42:53 19.59
14:43:9 19.49
14:43:23 19.36
14:43:42 19.39
14:43:53 19.66
14:44:10 19.95
14:44:25 19.73
14:44:43 19.26
14:44:58 18.98
14:45:15 18.79
14:45:31 18.66
14:45:46 18.58
14:46:2 18.76
14:46:19 18.89
14:46:34 18.79
14:46:49 18.56
14:47:4 18.44
14:47:20 18.36
14:47:36 18.46
14:47:52 18.41
14:48:7 18.28
14:48:24 18.38
14:48:39 18.42
14:48:56 18.57
14:49:11 18.73
14:49:27 18.93
14:49:43 19.11
14:49:59 19.4
14:50:15 19.49
14:50:31 19.25
14:50:47 19.17
14:51:3 18.83
14:51:18 18.56
14:51:35 18.32
14:51:50 18.14
14:52:6 17.88
14:52:22 17.74
14:52:38 17.77
14:52:54 17.9
14:53:10 18.0
14:53:26 18.09
14:53:42 17.98
14:53:58 17.96
14:54:14 17.94
14:54:29 18.03
14:54:46 18.39
14:55:1 18.45
14:55:18 18.48
14:55:33 18.46
14:55:49 18.4
14:56:5 18.17
14:56:21 18.08
14:56:37 18.09
14:56:53 17.94
14:57:8 18.05
14:57:25 18.0
14:57:40 17.87
14:57:56 17.98
14:58:12 17.99
14:58:28 18.07
14:58:44 18.11
14:59:0 18.02
14:59:16 18.06
14:59:32 18.18
14:59:47 18.3
15:0:4 18.43
15:0:19 18.53
15:0:35 18.72
15:0:51 18.84
15:1:7 18.67
15:1:23 18.58
15:1:39 18.32
15:1:55 18.21
15:2:11 18.11
15:2:26 17.93
15:2:43 17.91
15:2:58 17.88
15:3:15 17.73
15:3:30 17.65
15:3:46 17.67
15:4:2 17.53
15:4:18 17.66
15:4:34 17.73
15:4:50 17.79
15:5:6 17.74
15:5:22 17.63
15:5:37 17.53
15:5:54 17.52
15:6:9 17.49
15:6:25 17.35
15:6:41 17.36
15:6:57 17.37
15:7:13 17.33
15:7:29 17.35
15:7:45 17.37
15:8:1 17.34
15:8:16 17.34
15:8:33 17.27
15:8:48 17.36
15:9:5 17.34
15:9:20 17.45
15:9:36 17.42
15:9:52 17.34
15:10:8 17.28
15:10:24 17.16
15:10:40 17.22
15:10:55 17.23
15:11:12 17.12
15:11:27 17.13
15:11:44 17.11
15:11:59 17.13
15:12:15 17.21
15:12:31 17.29
15:12:47 17.17
15:13:3 17.02
15:13:19 17.07
15:13:35 17.11
15:13:51 17.18
15:14:6 17.14
15:14:23 17.2
15:14:38 17.26
15:14:54 17.19
15:15:10 17.14
15:15:26 17.15
15:15:42 17.22
15:15:58 17.36
15:16:14 17.46
15:16:30 17.52
15:16:45 17.46
15:17:2 17.48
15:17:17 17.43
15:17:34 17.49
15:17:49 17.45
15:18:5 17.31
15:18:21 17.27
15:18:37 17.26
15:18:53 17.19
15:19:9 17.06
15:19:25 16.9
15:19:41 16.84
15:19:56 16.9
15:20:13 16.98
15:20:28 17.11
15:20:45 17.32
15:21:0 17.58
15:21:16 17.66
15:21:32 17.57
15:21:48 17.44
15:22:4 17.29
15:22:20 17.26
15:22:35 17.18
15:22:52 17.19
15:23:7 17.3
15:23:24 17.32
15:23:39 17.29
15:23:55 17.18
15:24:11 17.06
15:24:27 16.98
15:24:43 16.87
15:24:59 16.83
15:25:15 16.85
15:25:31 16.87
15:25:47 16.87
15:26:3 16.85
15:26:18 16.87
15:26:34 16.81
15:26:50 16.87
15:27:6 16.93
15:27:22 17.0
15:27:38 17.12
15:27:54 17.3
15:28:10 17.58
15:28:25 17.67
15:28:42 17.93
15:28:57 18.14
15:29:14 18.29
15:29:29 18.36
15:29:45 18.41
15:30:1 18.53
15:30:17 18.56
15:30:33 18.49
15:30:49 18.65
15:31:5 18.96
15:31:21 19.06
15:31:36 19.13
15:31:53 19.01
15:32:8 19.25
15:32:24 19.5
15:32:40 19.8
15:32:56 20.06
15:33:12 19.7
15:33:28 19.91
15:33:44 20.24
15:34:0 20.66
15:34:15 20.82
15:34:32 20.7
15:34:47 20.34
15:35:4 19.99
15:35:19 19.62
15:35:35 19.32
15:35:51 18.95
15:36:7 18.88
15:36:23 18.72
15:36:39 18.46
15:36:54 18.09
15:37:11 17.89
15:37:26 17.7
15:37:43 17.58
15:37:58 17.56
15:38:14 17.57
15:38:30 17.57
15:38:46 17.61
15:39:2 17.65
15:39:18 17.71
15:39:34 17.91
15:39:50 18.08
15:40:5 17.88
15:40:22 17.7
15:40:37 17.57
15:40:53 17.57
15:41:9 17.57
15:41:25 17.6
15:41:41 17.45
15:41:57 17.33
15:42:13 17.24
15:42:29 17.18
15:42:45 17.21
15:43:1 17.3
15:43:16 17.29
15:43:33 17.29
15:43:48 17.32
15:44:4 17.27
15:44:20 17.08
15:44:36 16.99
15:44:52 16.99
15:45:8 16.98
15:45:24 16.84
15:45:40 16.72
15:45:55 16.67
15:46:12 16.65
15:46:27 16.63
15:46:44 16.56
15:46:59 16.58
15:47:15 16.58
15:47:31 16.62
15:47:47 16.65
15:48:3 16.7
15:48:19 16.7
15:48:34 16.69
15:48:51 16.65
15:49:6 16.69
15:49:23 16.73
15:49:38 16.7
15:49:54 16.66
15:50:10 16.59
15:50:26 16.53
15:50:42 16.53
15:50:58 16.55
15:51:14 16.55
15:51:30 16.56
15:51:45 16.57
15:52:2 16.55
15:52:17 16.57
15:52:33 16.57
15:52:49 16.51
15:53:5 16.45
15:53:21 16.43
15:53:37 16.38
15:53:53 16.35
15:54:9 16.33
15:54:24 16.35
15:54:41 16.36
15:54:56 16.32
15:55:13 16.29
15:55:28 16.29
15:55:44 16.29
15:56:0 16.32
15:56:16 16.32
15:56:32 16.28
15:56:48 16.24
15:57:4 16.2
15:57:20 16.2
15:57:35 16.21
15:57:52 16.23
15:58:7 16.3
15:58:23 16.35
15:58:39 16.35
15:58:55 16.34
15:59:11 16.32
15:59:27 16.33
15:59:43 16.34
15:59:59 16.32
16:0:14 16.26
16:0:31 16.22
16:0:46 16.17
16:1:3 16.16
16:1:18 16.18
16:1:34 16.21
16:1:50 16.25
16:2:6 16.2
16:2:22 16.18
16:2:38 16.14
16:2:53 16.15
16:3:10 16.17
16:3:25 16.2
16:3:42 16.23
16:3:57 16.24
16:4:13 16.2
16:4:29 16.18
16:4:45 16.14
16:5:1 16.14
16:5:17 16.16
16:5:33 16.2
16:5:49 16.23
16:6:4 16.27
16:6:21 16.3
16:6:36 16.28
16:6:53 16.28
16:7:8 16.31
16:7:24 16.34
16:7:40 16.35
16:7:56 16.4
16:8:12 16.38
16:8:28 16.36
16:8:43 16.35
16:9:0 16.34
16:9:15 16.33
16:9:32 16.31
16:9:47 16.33
16:10:3 16.32
16:10:19 16.31
16:10:35 16.33
16:10:51 16.38
16:11:7 16.39
16:11:23 16.4
16:11:39 16.4
16:11:55 16.4
16:12:11 16.36
16:12:26 16.3
16:12:43 16.28
16:12:59 16.27
16:13:14 16.29
16:13:30 16.31
16:13:46 16.33
16:14:2 16.32
16:14:18 16.33
16:14:33 16.36
16:14:50 16.36
16:15:5 16.4
16:15:22 16.49
16:15:37 16.54
16:15:53 16.55
16:16:9 16.55
16:16:25 16.53
16:16:41 16.45
16:16:57 16.44
16:17:13 16.47
16:17:29 16.47
16:17:44 16.5
16:18:1 16.5
16:18:16 16.51
16:18:32 16.54
16:18:48 16.53
16:19:4 16.53
16:19:20 16.57
16:19:36 16.59
16:19:52 16.61
16:20:8 16.67
16:20:23 16.63
16:20:40 16.61
16:20:55 16.57
16:21:12 16.57
16:21:27 16.54
16:21:43 16.53
16:21:59 16.51
16:22:15 16.44
16:22:31 16.41
16:22:47 16.43
16:23:3 16.47
16:23:19 16.49
16:23:34 16.48
16:23:51 16.48
16:24:6 16.51
16:24:23 16.53
16:24:38 16.5
16:24:54 16.52
16:25:10 16.57
16:25:26 16.56
16:25:42 16.62
16:25:58 16.66
16:26:13 16.65
16:26:30 16.67
16:26:45 16.7
16:27:2 16.78
16:27:17 16.86
16:27:33 16.8
16:27:49 16.79
16:28:5 16.89
16:28:21 16.98
16:28:37 16.96
16:28:53 16.94
16:29:9 16.89
16:29:24 16.84
16:29:41 16.78
16:29:56 16.69
16:30:12 16.64
16:30:28 16.62
16:30:44 16.6
16:31:0 16.63
16:31:16 16.6
16:31:32 16.54
16:31:48 16.59
16:32:3 16.65
16:32:20 16.69
16:32:35 16.75
16:32:52 16.77
16:33:7 16.76
16:33:23 16.79
16:33:40 16.8
16:33:55 16.8
16:34:13 16.78
16:34:27 16.86
16:34:43 17.04
16:34:59 17.19
16:35:14 17.28
16:35:31 17.41
16:35:46 17.53
16:36:2 17.76
16:36:18 17.8
16:36:34 17.83
16:36:50 17.89
16:37:6 18.09
16:37:22 18.26
16:37:38 18.36
16:37:53 18.28
16:38:10 18.27
16:38:25 18.4
16:38:42 18.52
16:38:57 18.67
16:39:13 18.63
16:39:29 18.34
16:39:45 18.14
