10:57:23 25.39
10:57:40 25.39
10:57:57 25.47
10:58:10 25.58
10:58:27 25.57
10:58:42 25.55
10:58:59 25.79
10:59:14 26.17
10:59:30 26.58
10:59:57 26.87
11:0:2 27.04
11:0:18 26.97
11:0:37 26.93
11:0:50 27.01
11:1:6 27.11
11:1:21 27.28
11:1:38 27.35
11:1:53 27.3
11:2:9 27.33
11:2:26 27.29
11:2:44 27.32
11:2:57 27.49
11:3:13 27.6
11:3:30 27.41
11:3:45 27.14
11:4:0 26.81
11:4:17 26.54
11:4:32 26.52
11:4:48 26.58
11:5:4 26.69
11:5:20 26.82
11:5:36 27.02
11:5:52 27.21
11:6:8 27.36
11:6:25 27.59
11:6:42 27.8
11:6:57 28.05
11:7:11 28.13
11:7:30 28.33
11:7:43 28.53
11:7:59 28.81
11:8:15 29.08
11:8:31 29.28
11:8:47 29.3
11:9:3 29.29
11:9:19 29.37
11:9:35 29.49
11:9:50 29.49
11:10:7 29.2
11:10:22 28.92
11:10:38 28.5
11:10:54 28.19
11:11:10 28.14
11:11:27 28.27
11:11:42 28.53
11:11:58 28.7
11:18:4 25.51
11:18:19 25.34
11:18:36 25.23
11:18:51 25.14
11:19:8 25.01
11:19:23 25.07
11:19:39 25.27
11:19:55 25.52
11:20:11 25.76
11:20:27 26.0
11:20:43 26.2
11:20:58 26.22
11:21:15 26.3
11:21:30 26.55
11:21:47 26.83
11:22:2 27.01
11:22:18 27.24
11:22:34 27.32
11:22:51 27.07
11:23:6 26.81
11:23:22 26.65
11:23:37 26.79
11:24:1 27.14
11:24:9 27.44
11:24:26 27.77
11:24:41 28.04
11:24:57 28.18
11:25:13 28.23
11:25:29 28.24
11:25:45 28.01
11:26:17 27.35
11:26:34 26.79
11:27:5 26.24
11:27:21 26.16
11:27:36 26.04
11:28:40 25.68
11:28:56 25.44
11:29:12 25.2
11:29:27 24.99
11:29:44 24.82
11:29:59 24.79
11:30:16 24.81
11:30:31 24.95
11:30:48 24.99
11:31:3 24.84
11:31:19 24.65
11:31:35 24.48
11:31:51 24.57
11:32:6 24.69
11:32:23 24.81
11:32:38 24.91
11:32:55 24.98
11:33:10 24.95
11:33:27 24.97
11:33:43 25.1
11:33:58 25.26
11:34:14 25.32
11:34:30 25.4
11:34:45 25.59
11:35:2 25.84
11:35:18 26.21
11:35:34 26.57
11:35:49 26.91
11:36:6 27.14
11:36:21 27.37
11:36:38 27.67
11:36:53 27.95
11:37:11 27.99
11:37:26 27.83
11:37:41 27.57
11:37:58 27.49
11:38:13 27.57
11:38:28 27.68
11:38:45 27.77
11:39:0 27.85
11:39:16 27.89
11:39:32 28.03
11:39:49 28.15
11:40:4 28.25
11:40:20 28.34
11:40:35 28.34
11:40:52 28.37
11:41:7 28.54
11:41:26 28.69
11:41:39 28.8
11:41:55 28.82
11:42:11 28.65
11:42:11 28.65
11:42:27 28.42
11:42:27 28.42
11:42:43 28.08
11:42:59 27.83
11:43:15 27.68
11:43:31 27.56
11:43:31 27.56
11:43:46 27.51
11:44:3 27.46
11:44:3 27.46
11:44:18 27.44
11:44:18 27.44
11:44:34 27.43
11:44:34 27.43
11:44:50 27.4
11:44:50 27.4
11:45:6 27.28
11:45:6 27.28
11:45:22 27.25
11:45:22 27.25
11:45:45 27.31
11:45:45 27.31
11:46:11 27.35
11:46:12 27.35
11:46:12 27.41
11:46:13 27.41
11:46:26 27.48
11:46:26 27.48
11:46:42 27.64
11:46:57 27.77
11:47:14 27.89
11:47:29 28.15
11:47:45 28.37
11:48:2 28.6
11:48:2 28.6
11:48:17 28.79
11:48:33 28.83
11:48:49 28.99
11:49:5 29.14
11:49:22 29.03
11:49:22 29.03
11:49:36 28.93
11:49:36 28.93
11:49:53 29.09
11:49:53 29.09
11:50:8 29.23
11:50:8 29.23
11:50:24 29.39
11:50:24 29.39
11:50:40 29.53
11:50:40 29.53
11:50:57 29.64
11:50:57 29.64
11:51:12 29.74
11:51:12 29.74
11:51:28 29.8
11:51:28 29.8
11:51:44 29.88
11:51:44 29.88
11:52:1 29.83
11:52:1 29.83
11:52:15 29.85
11:52:15 29.85
11:52:32 29.85
11:52:32 29.85
11:52:47 29.84
11:52:47 29.84
11:53:3 29.97
11:53:3 29.97
11:53:19 30.22
11:53:19 30.22
11:53:35 30.3
11:53:35 30.3
11:53:51 30.28
11:53:51 30.28
11:54:8 30.2
11:54:8 30.2
11:54:23 30.23
11:54:39 30.25
11:54:54 30.28
11:55:12 30.3
11:55:27 30.3
11:55:43 30.29
11:55:58 30.16
11:56:14 30.08
11:56:30 29.99
11:56:46 29.87
11:57:2 29.48
11:57:18 28.98
11:57:34 28.76
11:57:53 28.59
11:58:5 28.47
11:58:22 28.02
11:58:37 27.83
11:58:53 27.64
11:59:9 27.6
11:59:25 27.47
11:59:41 27.44
11:59:57 27.58
12:0:13 27.73
12:0:29 27.89
12:0:44 28.1
12:1:2 27.76
12:1:16 27.4
12:1:33 27.19
12:1:48 27.12
12:2:4 27.07
12:2:20 27.23
12:2:36 27.46
12:2:52 27.67
12:3:8 27.76
12:3:23 27.92
12:3:40 28.12
12:3:55 28.32
12:4:12 28.57
12:4:27 28.83
12:4:43 29.07
12:4:59 29.34
12:5:15 29.76
12:5:31 29.93
12:5:47 30.06
12:6:3 30.0
12:6:19 30.01
12:6:34 30.2
12:6:51 30.41
12:7:6 30.78
12:7:22 31.03
12:7:38 31.01
12:7:54 31.18
12:8:10 31.46
12:8:26 31.73
12:8:42 31.86
12:8:58 31.73
12:9:13 31.33
12:9:30 31.08
12:9:45 30.96
12:10:2 30.88
12:10:17 30.78
12:10:33 30.41
12:10:49 30.16
12:11:5 29.82
12:11:21 29.6
12:11:37 29.36
12:11:53 29.1
12:12:9 28.86
12:12:24 28.69
12:12:41 28.39
12:12:56 28.15
12:13:13 27.84
12:13:28 27.64
12:13:44 27.51
12:14:0 27.27
12:14:16 27.1
12:14:32 27.08
12:14:48 27.05
12:15:3 26.93
12:15:20 26.84
12:15:35 26.77
12:15:52 26.76
12:16:7 26.71
12:16:23 26.61
12:16:39 26.47
12:16:55 26.38
12:17:11 26.16
12:17:27 26.03
12:17:43 25.99
12:17:59 25.99
12:18:14 25.95
12:18:31 25.92
12:18:46 25.9
12:19:2 25.86
12:19:18 25.73
12:19:35 25.58
12:19:50 25.45
12:20:6 25.4
12:20:22 25.32
12:20:38 25.09
12:20:53 24.88
12:21:10 24.74
12:21:25 24.68
12:21:41 24.64
12:21:57 24.58
12:22:13 24.47
12:22:29 24.4
12:22:45 24.33
12:23:1 24.29
12:23:17 24.26
12:23:32 24.2
12:23:49 24.15
12:24:4 24.06
12:24:21 24.0
12:24:36 23.99
12:24:52 23.89
12:25:8 23.77
12:25:24 23.68
12:25:40 23.68
12:25:56 23.76
12:26:12 23.71
12:26:28 23.57
12:26:43 23.49
12:27:0 23.4
12:27:15 23.33
12:27:31 23.28
12:27:47 23.24
12:28:3 23.14
12:28:19 23.08
12:28:35 23.05
12:28:51 23.04
12:29:7 23.04
12:29:22 22.99
12:29:39 22.91
12:29:55 22.89
12:30:11 22.94
12:30:26 22.97
12:30:42 22.93
12:30:58 22.92
12:31:14 22.92
12:31:30 22.9
12:31:46 22.91
12:32:1 22.88
12:32:18 22.85
12:32:33 22.87
12:32:50 22.89
12:33:5 22.89
12:33:21 22.83
12:33:37 22.79
12:33:53 22.79
12:34:9 22.8
12:34:25 22.8
12:34:41 22.82
12:34:57 22.86
12:35:12 22.89
12:35:29 22.86
12:35:44 22.86
12:36:1 22.87
12:36:16 22.91
12:36:32 22.94
12:36:48 22.94
12:37:4 22.92
12:37:20 22.88
12:37:36 22.84
12:37:51 22.81
12:38:8 22.78
12:38:23 22.72
12:38:40 22.61
12:38:55 22.6
12:39:11 22.58
12:39:27 22.59
12:39:43 22.51
12:39:59 22.4
12:40:15 22.32
12:40:31 22.33
12:40:47 22.3
12:41:3 22.27
12:41:19 22.3
12:41:34 22.24
12:41:50 22.1
12:42:6 22.03
12:42:22 21.98
12:42:38 21.88
12:42:54 21.8
12:43:10 21.76
12:43:26 21.75
12:43:41 21.74
12:43:58 21.73
12:44:13 21.72
12:44:30 21.74
12:44:45 21.76
12:45:1 21.79
12:45:17 21.81
12:45:33 21.81
12:45:49 21.8
12:46:5 21.8
12:46:20 21.8
12:46:37 21.83
12:46:52 21.79
12:47:9 21.75
12:47:24 21.78
12:47:40 21.82
12:47:56 21.82
12:48:12 21.83
12:48:28 21.84
12:48:44 21.87
12:49:0 21.89
12:49:16 21.92
12:49:31 21.97
12:49:48 22.03
12:50:3 22.06
12:50:20 22.07
12:50:35 22.04
12:50:51 21.98
12:51:7 21.9
12:51:23 21.88
12:51:39 21.89
12:51:55 21.86
12:52:10 21.81
12:52:27 21.78
12:52:42 21.78
12:52:59 21.78
12:53:14 21.8
12:53:30 21.79
12:53:46 21.78
12:54:2 21.75
12:54:18 21.73
12:54:34 21.66
12:54:50 21.61
12:55:6 21.6
12:55:21 21.62
12:55:38 21.6
12:55:53 21.6
12:56:9 21.63
12:56:25 21.63
12:56:41 21.67
12:56:57 21.68
12:57:13 21.67
12:57:29 21.69
12:57:45 21.72
12:58:0 21.71
12:58:17 21.73
12:58:32 21.72
12:58:49 21.72
12:59:4 21.75
12:59:20 21.74
12:59:36 21.75
12:59:52 21.75
13:0:8 21.73
13:0:24 21.67
13:0:40 21.63
13:0:56 21.62
13:1:12 21.61
13:1:28 21.6
13:1:43 21.58
13:1:59 21.5
13:2:15 21.42
13:2:31 21.42
13:2:47 21.41
13:3:3 21.35
13:3:19 21.37
13:3:35 21.39
13:3:50 21.41
13:4:7 21.39
13:4:22 21.34
13:4:39 21.31
13:4:54 21.3
13:5:10 21.31
13:5:26 21.27
13:5:42 21.23
13:5:58 21.25
13:6:14 21.28
13:6:29 21.29
13:6:46 21.32
13:7:1 21.32
13:7:18 21.34
13:7:33 21.36
13:7:49 21.34
13:8:5 21.28
13:8:21 21.26
13:8:37 21.2
13:8:53 21.13
13:9:8 21.07
13:9:25 21.03
13:9:40 20.98
13:9:57 20.92
13:10:12 20.84
13:10:28 20.82
13:10:44 20.83
13:11:0 20.86
13:11:16 20.86
13:11:32 20.86
13:11:48 20.86
13:12:4 20.89
13:12:20 20.9
13:12:36 20.83
13:12:51 20.8
13:13:7 20.74
13:13:23 20.7
13:13:39 20.64
13:13:55 20.61
13:14:11 20.55
13:14:27 20.51
13:14:43 20.53
13:14:58 20.56
13:15:15 20.56
13:15:30 20.56
13:15:47 20.6
13:16:2 20.66
13:16:18 20.73
13:16:34 20.78
13:16:50 20.82
13:17:6 20.85
13:17:22 20.88
13:17:38 20.89
13:17:54 20.89
13:18:9 20.87
13:18:26 20.85
13:18:41 20.8
13:18:58 20.78
13:19:13 20.77
13:19:30 20.75
13:19:45 20.77
13:20:1 20.82
13:20:17 20.88
13:20:33 20.94
13:20:49 20.95
13:21:5 20.97
13:21:20 20.97
13:21:37 20.93
13:21:52 20.9
13:22:8 20.9
13:22:24 20.92
13:22:40 20.94
13:22:56 20.91
13:23:12 20.86
13:23:28 20.86
13:23:44 20.84
13:24:0 20.85
13:24:16 20.9
13:24:31 20.95
13:24:48 20.95
13:25:3 20.92
13:25:19 20.87
13:25:35 20.85
13:25:51 20.85
13:26:7 20.81
13:26:23 20.79
13:26:38 20.83
13:26:55 20.88
13:27:10 20.88
13:27:26 20.9
13:27:42 20.93
13:27:58 20.92
13:28:14 20.9
13:28:30 20.89
13:28:46 20.87
13:29:2 20.89
13:29:18 20.91
13:29:35 20.88
13:29:49 20.83
13:30:6 20.79
13:30:21 20.77
13:30:37 20.78
13:30:54 20.79
13:31:9 20.69
13:31:25 20.7
13:31:41 20.72
13:31:56 20.77
13:32:13 20.82
13:32:28 20.8
13:32:45 20.85
13:33:0 20.91
13:33:16 20.93
13:33:32 20.93
13:33:48 20.9
13:34:4 20.93
13:34:20 20.98
13:34:36 21.01
13:34:52 21.05
13:35:7 21.09
13:35:24 21.16
13:35:39 21.21
13:35:55 21.24
13:36:11 21.23
13:36:27 21.27
13:36:43 21.33
13:36:59 21.36
13:37:15 21.4
13:37:31 21.44
13:37:46 21.42
13:38:3 21.43
13:38:18 21.44
13:38:35 21.49
13:38:50 21.53
13:39:6 21.58
13:39:22 21.6
13:39:38 21.62
13:39:54 21.67
13:40:10 21.69
13:40:26 21.66
13:40:42 21.67
13:40:57 21.73
13:41:14 21.79
13:41:29 21.88
13:41:45 21.95
13:42:1 21.97
13:42:17 21.95
13:42:33 21.96
13:42:49 21.99
13:43:5 21.96
13:43:21 21.89
13:43:36 21.86
13:43:53 21.86
13:44:8 21.86
13:44:24 21.91
13:44:40 22.0
13:44:56 22.1
13:45:12 22.19
13:45:28 22.27
13:45:44 22.31
13:46:0 22.27
13:46:16 22.26
13:46:32 22.24
13:46:47 22.17
13:47:4 22.13
13:47:19 22.18
13:47:35 22.17
13:47:51 22.17
13:48:7 22.14
13:48:23 22.11
13:48:39 22.14
13:48:55 22.24
13:49:11 22.37
13:49:26 22.51
13:49:43 22.63
13:49:58 22.73
13:50:15 22.85
13:50:30 22.92
13:50:46 22.98
13:51:2 23.05
13:51:18 23.13
13:51:34 23.13
13:51:50 23.04
13:52:5 22.96
13:52:22 22.98
13:52:37 23.05
13:52:54 23.06
13:53:9 23.07
13:53:25 23.08
13:53:41 23.14
13:53:57 23.16
13:54:13 23.1
13:54:29 23.05
13:54:44 23.06
13:55:1 23.07
13:55:16 23.1
13:55:33 23.15
13:55:48 23.18
13:56:4 23.15
13:56:20 23.08
13:56:36 23.01
13:56:52 23.06
13:57:8 22.95
13:57:24 22.84
13:57:40 22.74
13:57:55 22.71
13:58:12 22.77
13:58:27 22.89
13:58:44 22.95
13:58:59 23.02
13:59:15 23.11
13:59:31 23.2
13:59:47 23.23
14:0:3 23.22
14:0:19 23.16
14:0:34 23.04
14:0:51 22.94
14:1:6 22.85
14:1:23 22.81
14:1:38 22.86
14:1:54 22.92
14:2:10 22.99
14:2:26 22.99
14:2:42 22.93
14:2:58 22.88
14:3:14 22.81
14:3:30 22.68
14:3:45 22.49
14:4:2 22.38
14:4:17 22.34
14:4:33 22.26
14:4:49 22.23
14:5:5 22.26
14:5:21 22.23
14:5:37 22.2
14:5:53 22.21
14:6:9 22.18
14:6:24 22.16
14:6:41 22.11
14:6:58 22.01
14:7:13 21.91
14:7:28 21.84
14:7:44 21.81
14:8:0 21.84
14:8:16 21.9
14:8:32 21.95
14:8:48 22.02
14:9:3 22.04
14:9:20 21.97
14:9:35 21.97
14:9:52 22.04
14:10:7 22.11
14:10:23 22.08
14:10:39 22.09
14:10:55 22.02
14:11:11 21.89
14:11:27 21.85
14:11:43 21.84
14:11:59 21.84
14:12:14 21.82
14:12:31 21.86
14:12:46 21.88
14:13:3 21.83
14:13:18 21.83
14:13:34 21.9
14:13:50 22.01
14:14:6 22.15
14:14:22 22.28
14:14:38 22.39
14:14:53 22.48
14:15:10 22.55
14:15:25 22.61
14:15:42 22.66
14:15:57 22.75
14:16:13 22.85
14:16:29 22.92
14:16:45 23.02
14:17:1 23.13
14:17:17 23.19
14:17:32 23.17
14:17:49 23.13
14:18:4 23.03
14:18:21 22.99
14:18:36 23.03
14:18:52 23.02
14:19:8 22.96
14:19:24 22.83
14:19:40 22.6
14:19:56 22.38
14:20:12 22.25
14:20:28 22.16
14:20:43 22.1
14:21:0 22.06
14:21:15 22.05
14:21:32 22.07
14:21:47 22.08
14:22:3 22.11
14:22:19 22.12
14:22:35 22.13
14:22:51 22.12
14:23:7 22.11
14:23:23 22.1
14:23:39 22.12
14:23:54 22.16
14:24:11 22.18
14:24:26 22.2
14:24:42 22.28
14:24:58 22.35
14:25:14 22.38
14:25:30 22.45
14:25:46 22.49
14:26:2 22.52
14:26:18 22.55
14:26:33 22.62
14:26:50 22.6
14:27:5 22.6
14:27:21 22.61
14:27:37 22.68
14:27:53 22.75
14:28:9 22.78
14:28:25 22.8
14:28:41 22.81
14:28:57 22.85
14:29:12 22.89
14:29:29 22.94
14:29:44 22.99
14:30:1 23.03
14:30:16 23.09
14:30:32 23.15
14:30:48 23.17
14:31:4 23.18
14:31:20 23.27
14:31:36 23.41
14:31:52 23.51
14:32:8 23.59
14:32:23 23.68
14:32:40 23.79
14:32:55 23.81
14:33:11 23.86
14:33:27 23.82
14:33:43 23.8
14:33:59 23.77
14:34:15 23.78
14:34:31 23.74
14:34:47 23.72
14:35:2 23.72
14:35:19 23.75
14:35:34 23.79
14:35:51 23.78
14:36:6 23.78
14:36:22 23.83
14:36:38 23.87
14:36:54 23.98
14:37:10 24.05
14:37:26 24.14
14:37:41 24.29
14:37:58 24.6
14:38:13 25.07
14:38:30 25.53
14:38:45 25.83
14:39:1 25.82
14:39:17 25.78
14:39:33 25.89
14:39:49 26.05
14:40:5 26.19
14:40:21 26.24
14:40:37 26.2
14:40:52 26.28
14:41:9 26.49
14:41:24 26.77
14:41:41 26.96
14:41:56 26.99
14:42:12 26.86
14:42:28 26.77
14:42:47 26.72
14:43:1 26.64
14:43:18 26.71
14:43:33 27.0
14:43:48 27.25
14:44:4 27.4
14:44:20 27.5
14:44:37 27.61
14:44:53 27.51
14:45:9 27.38
14:45:25 27.25
14:45:41 27.08
14:45:58 26.98
14:46:13 26.93
14:46:30 26.81
14:46:43 26.65
14:46:59 26.53
14:47:14 26.47
14:47:31 26.41
14:47:46 26.31
14:48:2 26.14
14:48:18 25.95
14:48:34 25.83
14:48:50 25.78
14:49:6 25.85
14:49:21 26.03
14:49:38 26.34
14:49:53 26.57
14:50:10 26.6
14:50:25 26.41
14:50:42 26.18
14:50:57 26.01
14:51:13 25.94
14:51:29 25.83
14:51:45 25.74
14:52:0 25.59
14:52:17 25.44
14:52:32 25.39
14:52:49 25.38
14:53:4 25.38
14:53:20 25.32
14:53:36 25.23
14:53:52 25.09
14:54:8 24.87
14:54:24 24.78
14:54:40 24.91
14:54:56 25.17
14:55:11 25.4
14:55:28 25.69
14:55:43 25.85
14:55:59 25.91
14:56:15 25.89
14:56:31 25.8
14:56:47 25.63
14:57:3 25.4
14:57:19 25.18
14:57:35 24.96
14:57:50 24.76
14:58:7 24.7
14:58:22 24.73
14:58:39 24.77
14:58:54 24.69
14:59:10 24.62
14:59:26 24.51
14:59:42 24.39
14:59:58 24.23
15:0:14 24.22
15:0:30 24.32
15:0:46 24.41
15:1:1 24.46
15:1:18 24.48
15:1:33 24.48
15:1:50 24.41
15:2:5 24.42
15:2:21 24.42
15:2:37 24.38
15:2:53 24.29
15:3:9 24.16
15:3:25 24.09
15:3:40 24.03
15:3:57 23.98
15:4:12 24.0
15:4:29 23.94
15:4:44 23.95
15:5:0 23.97
15:5:16 24.02
15:5:32 24.0
15:5:48 23.95
15:6:4 23.72
15:6:19 23.57
15:6:36 23.5
15:6:51 23.49
15:7:8 23.49
15:7:23 23.44
15:7:39 23.4
15:7:55 23.29
15:8:11 23.18
15:8:27 23.05
15:8:43 22.99
15:8:59 23.01
15:9:15 22.97
15:9:30 22.91
15:9:47 22.82
15:10:2 22.75
15:10:19 22.71
15:10:34 22.65
15:10:50 22.57
15:11:6 22.53
15:11:22 22.55
15:11:38 22.44
15:11:54 22.36
15:12:9 22.35
15:12:26 22.27
15:12:41 22.22
15:12:58 22.22
15:13:13 22.25
15:13:29 22.28
15:13:45 22.32
15:14:1 22.32
15:14:17 22.35
15:14:33 22.37
15:14:49 22.35
15:15:5 22.35
15:15:20 22.33
15:15:37 22.28
15:15:52 22.28
15:16:8 22.31
15:16:24 22.32
15:16:40 22.25
15:16:56 22.22
15:17:12 22.07
15:17:28 22.0
15:17:44 22.0
15:17:59 21.94
15:18:16 21.95
15:18:31 22.0
15:18:48 21.96
15:19:3 21.91
15:19:19 21.84
15:19:35 21.73
15:19:51 21.64
15:20:7 21.65
15:20:23 21.74
15:20:39 21.87
15:20:55 22.01
15:21:10 22.1
15:21:27 22.13
15:21:42 22.15
15:21:58 22.12
15:22:14 22.05
15:22:30 21.98
15:22:46 21.92
15:23:2 21.88
15:23:18 21.77
15:23:34 21.65
15:23:49 21.65
15:24:6 21.68
15:24:21 21.71
15:24:38 21.69
15:24:53 21.71
15:25:9 21.71
15:25:25 21.68
15:25:41 21.66
15:25:57 21.63
15:26:13 21.59
15:26:28 21.59
15:26:45 21.6
15:27:0 21.59
15:27:17 21.61
15:27:32 21.65
15:27:48 21.63
15:28:4 21.68
15:28:20 21.78
15:28:36 21.9
15:28:52 22.07
15:29:8 22.28
15:29:24 22.47
15:29:39 22.59
15:29:56 22.74
15:30:11 22.8
15:30:28 22.94
15:30:43 23.21
15:30:59 23.55
15:31:15 23.86
15:31:31 24.11
15:31:47 24.24
15:32:3 24.36
15:32:18 24.59
15:32:35 24.68
15:32:50 24.78
15:33:7 24.9
15:33:22 25.03
15:33:38 25.16
15:33:54 25.33
15:34:10 25.6
15:34:26 25.82
15:34:42 25.85
15:34:58 25.78
15:35:14 25.66
15:35:29 25.45
15:35:46 25.25
15:36:1 25.04
15:36:18 24.73
15:36:33 24.4
15:36:49 24.03
15:37:5 23.93
15:37:21 23.87
15:37:37 23.75
15:37:53 23.64
15:38:9 23.54
15:38:25 23.4
15:38:40 23.17
15:38:57 23.12
15:39:12 23.16
15:39:28 23.24
15:39:44 23.27
15:40:0 23.27
15:40:16 23.23
15:40:32 23.31
15:40:48 23.33
15:41:4 23.27
15:41:19 23.19
15:41:36 23.12
15:41:51 22.97
15:42:7 22.77
15:42:23 22.6
15:42:39 22.52
15:42:55 22.46
15:43:12 22.39
15:43:27 22.32
15:43:43 22.26
15:43:58 22.14
15:44:15 21.98
15:44:30 21.89
15:44:47 21.86
15:45:2 21.81
15:45:18 21.77
15:45:34 21.7
15:45:50 21.63
15:46:6 21.6
15:46:22 21.55
15:46:38 21.46
15:46:54 21.35
15:47:9 21.28
15:47:26 21.26
15:47:41 21.27
15:47:57 21.26
15:48:13 21.2
15:48:29 21.15
15:48:45 21.1
15:49:1 21.07
15:49:17 21.05
15:49:33 21.03
15:49:48 21.02
15:50:5 20.98
15:50:20 20.94
15:50:37 20.92
15:50:52 20.9
15:51:8 20.86
15:51:24 20.85
15:51:40 20.8
15:51:56 20.73
15:52:12 20.67
15:52:27 20.65
15:52:44 20.54
15:52:59 20.48
15:53:16 20.46
15:53:31 20.43
15:53:47 20.39
15:54:3 20.35
15:54:19 20.35
15:54:35 20.3
15:54:51 20.21
15:55:7 20.16
15:55:23 20.13
15:55:38 20.07
15:55:55 20.03
15:56:10 20.01
15:56:27 19.98
15:56:42 19.95
15:56:58 19.94
15:57:14 19.94
15:57:30 19.92
15:57:46 19.93
15:58:2 19.92
15:58:17 19.88
15:58:34 19.85
15:58:49 19.82
15:59:6 19.81
15:59:21 19.79
15:59:37 19.77
15:59:53 19.77
16:0:9 19.76
16:0:25 19.71
16:0:41 19.67
16:0:57 19.68
16:1:13 19.71
16:1:28 19.64
16:1:45 19.57
16:2:0 19.56
16:2:17 19.54
16:2:32 19.54
16:2:48 19.52
16:3:4 19.49
16:3:20 19.47
16:3:36 19.44
16:3:52 19.42
16:4:7 19.44
16:4:24 19.48
16:4:39 19.53
16:4:56 19.56
16:5:11 19.56
16:5:27 19.57
16:5:43 19.59
16:5:59 19.55
16:6:15 19.5
16:6:31 19.47
16:6:47 19.42
16:7:3 19.37
16:7:18 19.32
16:7:35 19.28
16:7:50 19.25
16:8:7 19.28
16:8:22 19.31
16:8:39 19.34
16:8:54 19.38
16:9:10 19.4
16:9:26 19.39
16:9:42 19.41
16:9:57 19.45
16:10:14 19.47
16:10:29 19.49
16:10:46 19.44
16:11:1 19.41
16:11:17 19.35
16:11:33 19.31
16:11:49 19.31
16:12:5 19.3
16:12:21 19.34
16:12:37 19.36
16:12:53 19.37
16:13:8 19.38
16:13:25 19.41
16:13:40 19.45
16:13:57 19.48
16:14:12 19.48
16:14:28 19.48
16:14:44 19.49
16:15:0 19.5
16:15:16 19.5
16:15:32 19.51
16:15:47 19.54
16:16:4 19.5
16:16:19 19.46
16:16:36 19.44
16:16:51 19.47
16:17:7 19.5
16:17:23 19.5
16:17:39 19.48
16:17:55 19.46
16:18:11 19.44
16:18:27 19.43
16:18:43 19.43
16:18:58 19.43
16:19:15 19.41
16:19:30 19.38
16:19:47 19.35
16:20:2 19.34
16:20:18 19.33
16:20:34 19.32
16:20:50 19.28
16:21:6 19.25
16:21:22 19.27
16:21:37 19.25
16:21:54 19.19
16:22:9 19.17
16:22:26 19.18
16:22:41 19.22
16:22:57 19.28
16:23:13 19.32
16:23:29 19.38
16:23:45 19.42
16:24:1 19.46
16:24:17 19.48
16:24:33 19.47
16:24:48 19.51
16:25:5 19.51
16:25:20 19.52
16:25:36 19.55
16:25:52 19.51
16:26:8 19.4
16:26:24 19.32
16:26:40 19.33
16:26:56 19.35
16:27:12 19.41
16:27:27 19.48
16:27:44 19.54
16:27:59 19.62
16:28:16 19.71
16:28:31 19.8
16:28:47 19.84
16:29:3 19.82
16:29:19 19.76
16:29:35 19.7
16:29:51 19.67
16:30:7 19.69
16:30:23 19.75
16:30:38 19.83
16:30:55 19.86
16:31:10 19.82
16:31:26 19.78
16:31:42 19.77
16:31:58 19.77
16:32:14 19.75
16:32:30 19.71
16:32:46 19.7
16:33:2 19.69
16:33:17 19.71
16:33:34 19.73
16:33:50 19.75
16:34:6 19.76
16:34:21 19.76
16:34:37 19.85
16:34:53 19.94
16:35:9 20.02
16:35:25 20.16
16:35:41 20.28
16:35:56 20.3
16:36:13 20.26
16:36:28 20.25
16:36:45 20.27
16:37:0 20.35
16:37:16 20.39
16:37:32 20.46
16:37:48 20.58
16:38:4 20.7
16:38:20 20.83
16:38:36 20.98
16:38:52 21.15
16:39:7 21.24
16:39:24 21.36
16:39:39 21.44
